Submitting job....
            Job submmited succesfully
            Job ID: 12345.login01.prometheus.cyfronet.pl
            State: PENDING
            Information: {"time": "2022-06-09T16:19:03.637905", "data": {"job_id": "12345.login01.prometheus.cyfronet.pl", 
            "stdout_path": "https://data.plgrid.pl/download//prometheus/net/people/plgvarella/vph-hfv3-2.0/src/../../../../../../inputs/Orchestration_2/Loop_2/structural_708/,
            "stderr_path": "https://data.plgrid.pl/download//prometheus/net/people/plgvarella/vph-hfv3-2.0/src/../../../../scratch/people/plgvarella/iofiles_v2.0_sphere/Orchestration_1/Loop_1/oxygen_transport_2435/error.err", "status": "QUEUED"}}
            Job called with success!
            