n,1,-21.70631790161133,-7.832565784454346,-202.2666625976562
n,2,-22.9459171295166,16.10408973693848,-166.6736297607422
n,3,-17.60050773620605,10.06925487518311,-173.1023559570312
n,4,-27.61054801940918,-13.19234657287598,-188.9334411621094
n,5,-16.57704734802246,-19.67622184753418,-167.4152679443359
n,6,-26.43481826782227,-6.595579624176025,-166.3651885986328
n,7,-7.462276458740234,-16.90875434875488,-166.5159149169922
n,8,-20.97346496582031,-14.82251167297363,-166.4915313720703
n,9,-20.14994049072266,-14.95451164245605,-161.8583374023438
n,10,-23.23811149597168,-12.642014503479,-166.3853454589844
n,11,-22.30010604858398,-12.52056121826172,-163.2509765625
n,12,-26.04576110839844,0.3032493591308594,-154.5916595458984
n,13,-15.32074642181396,-6.245619773864746,-157.553466796875
n,14,-19.90668869018555,-13.44876194000244,-166.2021331787109
n,15,-20.82939338684082,-13.64032745361328,-162.3431549072266
n,16,-20.06033134460449,-12.105224609375,-160.5748748779297
n,17,-25.71007668075395,-5.407957059221451,-203.1128209710259
n,18,-30.08026107074596,-5.991115819612157,-204.4292676431005
n,19,-34.33032605679801,-5.523080052078075,-202.1324671390587
n,20,-38.43436472454827,-3.507180311944141,-201.5930626108142
n,21,-42.3011135729208,-0.485110858093001,-201.4890320019086
n,22,-45.38898939892961,3.345344485296289,-201.7458694480131
n,23,-47.70769382245209,6.741032465949077,-199.5832868680736
n,24,-49.91468965503645,10.63638090819881,-198.7111391272912
n,25,-51.71257007940152,15.11604568127412,-198.1471560672055
n,26,-52.50793051243501,18.90382018895147,-195.406229529383
n,27,-53.03659899194309,21.96303718456987,-191.6681946641943
n,28,-54.04649450216989,23.47142424370674,-187.0759652181229
n,29,-52.84897290016075,27.7163033838165,-184.963425754648
n,30,-51.30342002446609,31.00481793401943,-182.5018141833075
n,31,-54.0373687982982,32.90743186877255,-179.5635810290247
n,32,-55.87839256118568,36.66254820457378,-177.7122550434934
n,33,-56.47976125101233,41.10846176585341,-175.6969268250723
n,34,-58.55361738037014,43.2181857788466,-172.3492933956825
n,35,-58.10626827108674,42.21087396294471,-167.6040495575657
n,36,-57.36114396166305,41.34400823097646,-162.8228536421806
n,37,-57.04171835806183,40.09297374407106,-158.2091736779613
n,38,-56.16897358263667,38.56150794764906,-153.9999150325043
n,39,-54.75290563492142,37.26269913077061,-149.7202191051282
n,40,-52.50301452464152,36.04119958284195,-146.8852913896773
n,41,-47.83327301513311,35.82465575081893,-146.2680479594771
n,42,-44.11467658283445,32.57914026390964,-146.1185101881919
n,43,-39.52174630414405,31.21808012919412,-146.4671486123718
n,44,-34.98907365386855,30.29976516706801,-147.4482968057319
n,45,-32.61644975620312,28.95548318294213,-151.4774569192425
n,46,-31.33952073381063,27.18790899722282,-155.2500227568794
n,47,-29.22426035676484,23.69007204788296,-157.8097857573374
n,48,-26.70466703552891,19.79629641850982,-159.1083160323339
n,49,-25.54778436344812,18.51862200076145,-163.344340227454
n,50,-21.24246539628017,-10.54935964566629,-200.1359143136448
n,51,-18.82393151044702,-8.91360803843958,-196.6329033799661
n,52,-15.93064928627551,-9.092370497946963,-193.2648106939091
n,53,-13.13442543686968,-7.856764550381451,-190.6502157453031
n,54,-11.12209298105928,-4.555978862140121,-188.5197890871926
n,55,-11.07565777982257,-1.228164920954378,-185.4021660785727
n,56,-11.99361631551143,1.7297658193067,-182.1657865868162
n,57,-13.54162245834573,4.461774274765667,-178.8595931171871
n,58,-14.99611850566944,7.299162084681701,-175.5992638786898
n,59,-24.63765828744154,-6.116044687022126,-198.9089531171917
n,60,-26.12837439811651,-6.597330688281621,-194.4237224511948
n,61,-26.67300252609514,-9.218935150362256,-190.3648613166861
n,62,-25.06802328348907,-16.88896038631176,-188.6140458387169
n,63,-21.63583217369411,-18.81922674035691,-186.7612841688044
n,64,-19.14565870940398,-19.66261200352893,-183.9559927942555
n,65,-18.60336900895257,-21.10828979737277,-179.6371622250428
n,66,-16.97372852846253,-22.21310675185123,-175.5165818772703
n,67,-16.18063638252063,-21.82163370789554,-171.4496732517196
n,68,-28.92618235057701,-11.82466340452738,-184.5110355677243
n,69,-28.55856841729962,-9.562407093672494,-180.1766236510698
n,70,-27.26418899353776,-7.836035911649286,-175.7321991607307
n,71,-26.55566185766595,-6.102993393558142,-171.1605160048463
n,72,-19.74534036198885,12.60313936690238,-172.32778020455
n,73,-21.12809702908362,13.96500722974735,-169.1511004516348
n,74,-14.6936819668984,7.429041658316178,-170.6619179146887
n,75,-12.31742687508128,5.745666394768064,-167.107984473845
n,76,-8.468788767557614,3.356269726698735,-167.1061281372611
n,77,-5.709529206812194,1.985075152708094,-169.4660271990744
n,78,-2.834229277457436,0.575116045991146,-169.8174536522981
n,79,0.1991473718356784,-2.039027585261172,-168.4627819229959
n,80,0.0306514199862904,-5.663864702111088,-166.0142186581485
n,81,-0.587585244055359,-9.967680075584836,-166.1478910554026
n,82,-0.9057343652594574,-13.99722100823515,-167.7825804352045
n,83,-4.003153609615428,-17.0062871272306,-168.4435305547273
n,84,-13.23722418229293,-18.69473295059935,-166.2448614794765
n,85,-9.977214114152002,-19.16550903663749,-167.730760047047
n,86,-19.36080656235388,-17.59941364742174,-166.0145973081395
n,87,-16.8777967223282,-17.11877244805108,-164.1055106808552
n,88,-25.47566590745462,-10.10639713729217,-165.4382369359056
n,89,-22.11220797352818,-13.83685765873624,-167.3455006779564
n,90,-22.76910877227783,-12.58128786087036,-164.8181610107422
n,91,-20.90223870247444,12.47138537579322,-164.1263357935602
n,92,-20.63789791137324,10.46410710050405,-160.0546854962786
n,93,-21.35534587734309,7.974708756867438,-156.1468611717461
n,94,-23.02825908553062,4.064368490522205,-154.1503160584828
n,95,-27.10373048554576,-4.314143119011896,-162.2805919421234
n,96,-26.87899268508843,-1.460785021960681,-158.6463727361069
n,97,-8.783326903739647,-14.07789320736536,-163.9304529075051
n,98,-10.48507181291895,-11.4042697607495,-161.4568394358899
n,99,-12.79362830474927,-8.949593753714707,-159.2105007800092
n,100,-20.44007682800293,-14.13563680648804,-166.3468322753906
n,101,-19.8814909183468,-12.39874417164198,-164.0910219835926
n,102,-20.36804103851318,-13.54454469680786,-164.2726440429688
n,103,-21.5647497177124,-13.0804443359375,-162.7970657348633
n,104,-20.44486236572266,-12.87277603149414,-161.4590148925781
n,105,-20.48966693878174,-14.29741954803467,-162.1007461547852
n,106,-16.3181639251849,-13.15729006978264,-161.6628360639021
n,107,-20.10513591766357,-13.52986812591553,-161.2166061401367
n,108,-17.84853836532061,-9.111921015931575,-158.9450898316102
n,109,-16.9797397985294,-2.342811476179638,-155.5165482836938
n,110,-21.40037606248644,-0.9827929699733302,-154.8850968087295
n,111,-31.98335971774977,33.13243934713937,-190.2763122536197
n,112,-33.93105660325701,35.46710407133423,-191.4929413024004
n,113,-33.36475607438331,35.59853143081192,-188.3460772746583
n,114,-35.65040015992552,37.53437603562293,-189.5457582098725
n,115,-36.88407181525935,36.06082685878833,-152.5937385429083
n,116,-37.45049103889908,37.47888329988197,-157.2943739777267
n,117,-39.52172694460595,39.84018930301526,-154.2563581863871
n,118,-48.05975104828143,36.88491637949156,-179.6635872975186
n,119,-45.60240808864569,40.43380750059492,-177.9992556911515
n,120,-44.45470057175971,37.4252745216548,-181.5846889367662
n,121,-24.99685848882647,18.28464879406451,-177.9865420789783
n,122,-27.68258034533322,21.29833982469797,-180.9445781596929
n,123,-27.22320174254001,22.06952885701293,-176.8288038939142
n,124,-46.0509693860905,12.59027228163326,-219.9070065729537
n,125,-46.0597556799914,9.308346936920879,-216.8578529225853
n,126,-45.61601547950874,14.52718555634718,-215.5769948796247
n,127,-31.32877996619065,32.43973215766995,-186.3625469799424
n,128,-31.26121304381103,31.77810888448091,-182.3775189824618
n,129,-29.88567325473638,28.97529447113145,-184.6253667671778
n,130,-53.21856400194177,40.59842155355135,-150.7524149783759
n,131,-50.34243881373432,39.59478713363864,-147.2501375402543
n,132,-50.06132276448606,43.46766919110478,-150.0054229252094
n,133,-25.23156513741238,17.80888977857546,-182.2135929005922
n,134,-26.50419954726589,10.74772020535316,-219.9307519596323
n,135,-29.14953169286807,13.05432504151339,-217.1112913455338
n,136,-24.60206646317418,11.56303684878669,-215.9865150540988
n,137,-31.72666487723604,33.88808712120983,-170.4044456641494
n,138,-34.3311086373942,37.49757361650724,-172.0481678600866
n,139,-33.47045954959239,36.19830193437921,-168.0624668760369
n,140,-46.62034810009109,10.45309893536448,-212.5161395885764
n,141,-34.85913279005354,35.09209468675606,-160.5963880251649
n,142,-33.0375308130589,31.21822624470216,-158.940905452035
n,143,-32.16058302799138,32.17324138135408,-164.8879867792218
n,144,-30.94525588501336,27.54049097250758,-160.9017303559398
n,145,-29.39675078094593,27.3334693652741,-192.7004374004406
n,146,-31.76828260455422,30.47600684872899,-196.0415068815027
n,147,-30.92283768895461,30.93499660428034,-192.5369220874546
n,148,-33.69096063140515,34.10615616184759,-194.2605723358524
n,149,-32.0520677675141,34.58487242489245,-175.0900884414795
n,150,-27.75684431170775,22.91023320338501,-165.1677121165925
n,151,-29.85199479180287,27.22770139145188,-165.4680752878432
n,152,-29.08834993900376,24.57018460180286,-162.2903261816545
n,153,-30.39227408059501,31.77565458339454,-173.103546698143
n,154,-33.17204808670958,31.09916613984093,-155.1608017247242
n,155,-35.06692112973741,34.19258259436211,-156.313557584226
n,156,-28.85722258065788,24.33572860969931,-179.5312938715134
n,157,-30.19167705671708,28.26582032499772,-180.3210731821238
n,158,-28.83550633160794,26.19218358475556,-176.6523060463978
n,159,-30.17950437149208,11.71912177717327,-221.4838205506885
n,160,-30.56316677859104,-7.696586944475708,-228.1278377489099
n,161,-33.57340182862324,-5.691268511753492,-231.7916737989032
n,162,-28.40195373967238,-4.76857547991048,-231.3422301608186
n,163,-29.0712770680742,28.03388826806288,-172.7864303511607
n,164,-27.27636124201413,23.55762983798108,-173.0497451463853
n,165,-42.36870037913395,43.36231270067393,-156.6704338133321
n,166,-46.07287244072509,46.08215519580647,-155.3341799753119
n,167,-43.27701793562213,44.24740809957191,-153.1024496279119
n,168,-27.63420215216906,21.7988649304235,-161.5992229956804
n,169,-41.25106939274868,41.31867613774723,-175.1312143221388
n,170,-37.96491630396883,40.39223016005477,-171.0345352891989
n,171,-37.05757846334249,39.55176265714451,-174.3593226538237
n,172,-32.39377008765639,-2.380899233499701,-234.7106624166689
n,173,-38.15201097055628,-6.349186126458819,-230.1583083575047
n,174,-37.78496792197328,-2.82861132586454,-232.8594992025655
n,175,-30.61860996851849,19.5186510754978,-203.6041827748193
n,176,-27.5588304478221,16.2399465846319,-201.5215481565205
n,177,-29.47164302463666,16.98997747995107,-205.3922497847929
n,178,-7.962797399668086,0.1442948445182188,-198.6125559257761
n,179,-7.182587775368269,-2.682241886659478,-200.4459722922916
n,180,-7.597835949695776,1.207679484976028,-202.7665627032927
n,181,-9.340198426265333,-2.826152523877636,-197.3726603340419
n,182,-42.57350191125126,-2.939771846366744,-229.7594219271996
n,183,-24.59931012689907,15.09511680783868,-198.1626859723551
n,184,-24.1646280330455,13.94866071418123,-194.3963212903673
n,185,-21.51772300913731,11.69869392749685,-197.3535438142391
n,186,-21.00873891420142,10.06703155124454,-193.0517812213454
n,187,-24.98887185894721,15.38293166346492,-190.1498959087935
n,188,-26.99925777998111,19.36899265414331,-188.9856006542527
n,189,-25.31589503994123,16.98853618239966,-186.4943142797692
n,190,-18.13368988865947,-6.283888589496975,-215.6684168307162
n,191,-17.20085280953868,-6.545973989684614,-219.336652392852
n,192,-14.27476918584083,-7.986142605234902,-216.9086706251932
n,193,-50.7386118677537,24.79859212531301,-198.6293860497827
n,194,-51.83733207098875,20.83976253628154,-198.6701500626122
n,195,-51.04818110997419,24.03546417608079,-194.8530081698987
n,196,-46.7669657343794,1.207358799563681,-218.4077032026532
n,197,-46.62905711811407,-2.042722180774435,-221.345914651939
n,198,-46.6104586843494,-3.142295937734192,-215.9834908932426
n,199,-14.78214709140368,5.197715334110111,-191.793212880016
n,200,-12.82289022622863,2.857040916626235,-187.6950206534026
n,201,-12.39496523330106,2.919579756119885,-192.1062618545364
n,202,-12.47327385249264,-8.168580987631483,-199.3919991809773
n,203,-12.18120569051808,-8.589945217946303,-204.2236397625798
n,204,-9.646920823849642,-5.837110533859319,-200.9266768172068
n,205,-46.48705251553928,1.775376182984302,-208.2190936501655
n,206,-44.56570036670657,-1.132991066655642,-206.9361646990164
n,207,-44.7693568549321,1.124311535589796,-204.2605620724458
n,208,-13.52972090589464,4.255429622296191,-195.1211369454682
n,209,-17.40565845990055,7.01702713730903,-196.493754954602
n,210,-29.60130063552796,29.01694989690838,-188.8848715854383
n,211,-28.32472013878363,25.30311173457271,-169.4446052072102
n,212,-30.30581198692045,29.84046614758542,-169.2917801999163
n,213,-30.35932963298353,30.98040884189377,-177.3339247116573
n,214,-22.6635069729091,12.29001267217058,-190.7662895263232
n,215,-20.93997721561542,12.23980269142647,-180.3497339401786
n,216,-20.31661500417691,12.69587839139963,-175.8798928372248
n,217,-18.15474144258773,9.42532768909705,-178.7740789008954
n,218,-15.34020300854776,6.820977156068809,-179.9587591623874
n,219,-17.12555590681963,7.878334540122944,-182.5400685345398
n,220,-20.13191442816944,10.6395937809054,-183.8688526221246
n,221,-22.69324424739256,14.25187577441453,-206.2088941218626
n,222,-22.29954946594953,14.2952926024428,-201.508974902558
n,223,-19.81012802452969,11.00242028807864,-205.1483589332873
n,224,-19.74848666824281,9.565313459792588,-200.2594305175901
n,225,-22.89163090051193,13.26080435057774,-187.191040855356
n,226,-47.00797383370569,17.29034740129601,-220.6399229515962
n,227,-27.36843525234801,-5.64154747623058,-226.7085149164726
n,228,-25.92799729218266,-5.615866364764558,-217.5912453862277
n,229,-28.07051734108397,-6.903659952027526,-214.2832529029823
n,230,-28.42703614763883,-7.36095944659307,-219.2653434177599
n,231,-49.29094969840182,28.07798019835466,-192.9190786742943
n,232,-51.52679997971053,26.49366322622085,-189.3710207012219
n,233,-48.07713758545435,31.06757882401745,-190.7395689969987
n,234,-24.72547110784036,-2.671555489171813,-228.3402502592596
n,235,-30.93096359427372,-8.810776376854069,-217.1902141703451
n,236,-39.37676510291475,38.59173346630525,-149.3345736759812
n,237,-15.50355225803886,5.643484386359273,-188.0721185124805
n,238,-42.43253686951916,37.32605835190077,-188.9778299100057
n,239,-45.17835184785396,34.82231081998113,-189.9242128037062
n,240,-45.12626704206521,35.79453932746429,-185.5476900016969
n,241,-41.58572166309708,36.01042658346031,-192.7408562900888
n,242,-28.42316090187783,15.70517951911697,-208.9371777215108
n,243,-25.93282205404027,15.40998097318467,-205.4732967139244
n,244,-25.54403442679076,14.61614333758666,-208.7931158471912
n,245,-43.52046473042746,37.65172334820132,-146.6351188162535
n,246,-41.60950653112809,41.649202593456,-148.5061148106927
n,247,-46.64122377143377,41.10169870920926,-147.1657229075979
n,248,-44.57489583878272,44.02558148151599,-149.7397422530584
n,249,-41.97916196032767,-2.337873167301135,-204.5589638866646
n,250,-50.14541391448792,30.16613376613109,-186.8984319816861
n,251,-24.39474865379248,-5.488184586033502,-213.3053347063338
n,252,-23.85066440270966,-5.560893242069714,-205.5254438955567
n,253,-27.55453114119768,-5.746066986189867,-206.6368066232916
n,254,-25.20862559708457,-5.509352954823679,-209.4974720972563
n,255,-44.03492281142975,-7.425821851362624,-216.0697931819423
n,256,-44.30097667526458,-5.278866520997196,-212.7908969827766
n,257,-53.90467147101016,42.48568567438839,-154.0143115691391
n,258,-54.10454225388369,44.07458078645618,-158.2277204159586
n,259,-45.76254882695702,-1.968990547433384,-210.9321524042499
n,260,-32.02539767237241,-8.612938295586503,-213.7098966626849
n,261,-49.54179679542955,25.58497836524203,-205.5358585823627
n,262,-45.9152981470554,27.89356021676562,-208.7140290481001
n,263,-48.173315461846,23.13954646213501,-209.8085218266031
n,264,-50.39519755071242,45.57893735488523,-154.4806371786464
n,265,-29.85144503058316,19.22680827063668,-199.8403257390166
n,266,-30.66336886604309,23.24612878433863,-200.9833437334926
n,267,-45.04962891665524,25.64421206162412,-212.3457577957492
n,268,-36.01520264167843,16.58262896123976,-220.5784267544384
n,269,-39.59211582368543,20.29405103245455,-222.1716495795778
n,270,-36.77595867557735,19.77926741679732,-217.1725436115662
n,271,-35.28072898623783,37.1558492562916,-165.006164095572
n,272,-37.93845430818709,38.84927096239509,-161.7890797487904
n,273,-25.48023470606989,19.4952294908943,-173.809878010648
n,274,-25.9785750037436,20.01470784327803,-168.5943079358989
n,275,-23.46282143497356,16.79915303379925,-170.9773322833088
n,276,-27.80930711932788,21.45825112038704,-185.4301959557285
n,277,-11.25941825503097,-0.1481458963301261,-190.5783036736191
n,278,-11.11431898477501,-2.647914172257533,-193.8681058122047
n,279,-12.34843233957389,4.610314400082805,-198.9908359908041
n,280,-10.95992438774345,1.205332606119886,-195.7282236837256
n,281,-10.48235900277609,2.213631707775766,-201.0756334381949
n,282,-45.77551784792119,-5.936539102603605,-220.3967719745115
n,283,-53.73785679829787,42.86972438633747,-165.4341579868887
n,284,-52.69947261332361,44.13946121059432,-162.1818826967536
n,285,-20.10207589690666,5.765446096007988,-233.7765752869619
n,286,-17.919598157158,6.702192983699927,-230.410417491193
n,287,-15.32264548949929,5.376401252418571,-232.5028887690819
n,288,-36.89375442877618,36.86285989371649,-192.6496112286298
n,289,-38.50136372861417,34.8314314991949,-196.129860129801
n,290,-31.68320030877614,-9.091071697869154,-220.9009301539591
n,291,-34.42333356234447,-9.974967247384084,-217.5359918252869
n,292,-35.79767461173512,-9.80741724476502,-221.5502398705278
n,293,-39.55805663955194,-9.848124077293647,-217.6297550872547
n,294,-51.0636630567038,18.34190283075691,-201.9733302342055
n,295,-43.69656434676153,33.58162242247714,-196.3501806495883
n,296,-25.508724168152,-0.0254638004293935,-235.2592189209066
n,297,-27.99941560620191,-2.892234693949877,-234.6580638888502
n,298,-29.2032607833351,0.02806996089793934,-235.4419494821553
n,299,-22.07223821302858,6.76429378975293,-229.6066540041574
n,300,-48.73979511345629,46.00444748860436,-159.5649249388716
n,301,-49.23061037958055,43.82161882492282,-165.0260387937106
n,302,-44.44696973760617,43.72763871012729,-161.3602419814801
n,303,-45.08887675755726,45.54032143523116,-158.9370215029841
n,304,-52.29063606328495,43.14872207062594,-168.7759316402754
n,305,-54.99859825390099,43.43567599511812,-172.4074206683254
n,306,-46.73042004132555,6.856367175006003,-213.8718300458635
n,307,-46.62078530309036,5.282719967764491,-217.5007253535482
n,308,-47.57602560084152,6.657152715009357,-209.2079384834283
n,309,-46.87868224757214,2.26066077441199,-213.0524651747847
n,310,-22.67991825490367,7.83902855615797,-225.6118749299009
n,311,-27.37694153207723,7.563184522465696,-228.5483888875462
n,312,-26.57243412525196,9.102424275709346,-224.1897152927799
n,313,-30.99123898734056,10.4613315017014,-225.783028853214
n,314,-32.41849786071787,9.25034620431164,-230.2981670363122
n,315,-40.99127858024566,39.10199677162585,-185.0976093664852
n,316,-36.75108850240466,38.70108416179711,-181.6426698979861
n,317,-36.22356507400595,38.15960005133297,-186.4492288662763
n,318,-33.42986439846416,35.89970086885866,-184.4377218564301
n,319,-23.0197953919149,16.0808735737819,-175.2710919727687
n,320,-22.85302917334793,15.39455255578689,-179.305190544413
n,321,-14.93915701424229,-8.258865835062903,-211.7790353514758
n,322,-10.42859162798531,-7.190358716439653,-213.7130686876564
n,323,-34.8388236806704,37.91181031532595,-176.8726611471155
n,324,-29.43585593022813,21.71995654495418,-197.0835648395396
n,325,-29.15136221779594,23.84198218610469,-194.0964408129727
n,326,-28.15845810906437,20.32349876043755,-193.2176230571426
n,327,-30.2922445303471,26.85367323916461,-197.4981087101295
n,328,-38.1933718801283,39.70494890834406,-177.6186803101128
n,329,-33.26988896179207,16.23824859512844,-216.2365890487
n,330,-32.52448422038583,13.84712834542098,-219.3375301271341
n,331,-17.39128406364347,7.846869504693634,-186.1419304536157
n,332,-17.84020403309023,7.564790592942146,-190.7830218268071
n,333,-20.01590215236445,10.26350969606448,-188.443595577744
n,334,-30.72024561851027,15.90995164471189,-212.6553030216587
n,335,-26.16865027301049,13.65765339722282,-212.323342908055
n,336,-34.71714525445589,32.74665877597603,-151.5004915524056
n,337,-18.84596366951487,-9.63963894897784,-204.3686501914863
n,338,-21.2431724569881,-6.811379480860218,-206.598165998022
n,339,-18.07858614871193,-7.927515269020094,-208.4442563327755
n,340,-21.22444647229577,-5.667029738115467,-210.1179244604444
n,341,-9.621243394634522,-6.994414011938263,-218.1445894980945
n,342,-49.65687789941288,27.72038902036159,-200.997221509228
n,343,-51.50198370233569,23.03738632612798,-201.7886038730226
n,344,-49.0799236275839,27.62469291474445,-196.8748875456751
n,345,-46.25160362950069,30.90068808154544,-199.691403300543
n,346,-11.81828938764304,5.772306197702439,-220.2235771178105
n,347,-10.94402107840149,1.441664631708315,-221.3489298814139
n,348,-11.97853800408346,4.312286449832269,-225.106932652166
n,349,-10.61776109362536,0.8521217363901158,-226.1768330780893
n,350,-37.00965633048666,-8.77607619013877,-226.0153112333292
n,351,-34.35523825008676,-7.90944125002433,-228.7910955711732
n,352,-41.34928795410115,30.56959527860147,-207.2000814434433
n,353,-46.35051900719542,29.74591554929452,-204.4032730333921
n,354,-42.07476089249452,28.75481418566994,-210.8080092935128
n,355,-29.33964457713169,-7.243942256021345,-209.8332228370245
n,356,-15.60907183845356,7.240099167970442,-219.4542433515466
n,357,-13.21470217847865,8.898339175344914,-216.9339231572433
n,358,-29.30578275843986,24.99610172541549,-182.9088060538562
n,359,-28.97044156782819,25.72386684455318,-186.2911600775165
n,360,-47.46093625164014,33.25473762853327,-188.096098687044
n,361,-41.35903243984873,41.74715041566705,-163.5315532106978
n,362,-38.89645773920045,40.56000715130977,-166.4493285603593
n,363,-43.76174447523587,42.82590486279517,-165.8267244709966
n,364,-35.74172734005414,38.53406502387166,-168.6237117519632
n,365,-45.19260239808281,33.30149816348416,-192.8107998681604
n,366,-41.19325097157914,-7.640545847607151,-226.6151839789541
n,367,-42.04947090008145,26.34006817908134,-214.5263209564182
n,368,-38.48756683670382,26.68652269144888,-213.9850551171431
n,369,-39.13214225825353,23.66374443730977,-217.5290292578816
n,370,-41.31936163703932,42.00245437101979,-151.8981302651725
n,371,-40.33948156668698,41.04506627122382,-159.0957055392506
n,372,-36.06065993245618,23.50353226142577,-213.3242176395709
n,373,-41.5215659127469,10.34012050127582,-231.8838171001708
n,374,-40.80554472544834,13.99934952797415,-230.4690456946754
n,375,-37.01190433338161,11.10864667128205,-231.8487021654929
n,376,-11.91820307551847,4.163153414059312,-216.3933275938726
n,377,-38.51605132111737,-5.224144980936622,-205.5275198030377
n,378,-34.89240371228684,-6.747516353114053,-206.3547898706942
n,379,-51.2734554856461,35.09071445776583,-179.6941016737958
n,380,-50.39119979795785,38.80730590617528,-177.8306829835917
n,381,-21.53366702603022,14.58197816846937,-172.7602224876899
n,382,-49.2116586364405,15.6953559178451,-205.5771773869499
n,383,-48.84133484304895,12.14885486607049,-203.4642870405788
n,384,-50.2366456332431,14.40979758883901,-201.5045975162264
n,385,-37.09955239129143,28.11041797442184,-210.7598928571604
n,386,-47.06936290277764,30.79772431480575,-195.1244619298453
n,387,-25.72796446380279,-5.06162494610932,-221.6090146471486
n,388,-22.43926152304414,-3.817318722476895,-217.3474837501794
n,389,-32.91357098483304,35.28868328216674,-180.3528011758946
n,390,-35.49324960240011,29.09956772158803,-205.6229791903382
n,391,-31.56152007275285,19.44502559752977,-208.7290868185659
n,392,-14.97059162908588,7.614320751214281,-206.5364656428294
n,393,-12.1589649484611,5.113051302410668,-203.9870537843322
n,394,-12.17225126851831,6.395312738443385,-209.2142107028183
n,395,-43.14249003475298,-8.116520131709713,-219.7053188949399
n,396,-43.68143322919611,-7.134426354357474,-222.9008817310949
n,397,-40.38438534559669,-9.217012396996894,-222.5520130951641
n,398,-42.31844761530589,42.09785149762926,-170.0047547706973
n,399,-47.01626312866846,43.02490758408123,-169.151902026799
n,400,-50.55702352706905,43.78372271355717,-172.9715915873148
n,401,-21.00740226018715,0.6775237130563728,-233.2968624323257
n,402,-17.31902364247882,0.06280481553872003,-233.6292548415031
n,403,-17.26495540869733,-1.426176638838773,-230.5780021409747
n,404,-40.5857978922331,35.22787678910012,-146.7953432983097
n,405,-37.0875374537666,34.60366509740623,-148.1461995225401
n,406,-27.87270926737326,17.13834519695865,-196.6874596719526
n,407,-16.31945867413613,6.775665677057066,-202.7364206561424
n,408,-37.75912396942827,-7.885665109914093,-209.834268448603
n,409,-42.17530114704801,-4.610324646383829,-208.3791131460353
n,410,-18.3369694311636,7.905426515834911,-206.6074897744187
n,411,-36.76665187605371,-9.478326238571544,-213.9091941608609
n,412,-40.90528514125931,-8.05836191328284,-212.7402577972971
n,413,-48.28472997560015,42.16130313041656,-175.8650536796425
n,414,-52.83101862224687,41.13816715071427,-175.8912270148105
n,415,-45.22480487286135,42.82422567386908,-173.1838296516724
n,416,-47.07774170319991,45.67434801388534,-151.7548506729631
n,417,-22.29261042742002,11.92538253292175,-212.6009190129206
n,418,-21.13220386338184,8.806033347069453,-214.5733797220561
n,419,-22.4498370016828,9.265053313635805,-218.9511597087178
n,420,-47.67656985155472,34.25060685192486,-182.1678184875917
n,421,-41.18100446065414,39.71941560382432,-179.9785911455045
n,422,-19.70496496386343,9.751124401453342,-209.7960287472141
n,423,-22.28874738585143,13.28469466280927,-209.3400893341316
n,424,-18.14760436484032,-10.30781347078466,-200.2995660579019
n,425,-7.454263534764515,-0.2233652069115944,-210.5980167655933
n,426,-9.110087140568364,0.1540275437127746,-216.200173827782
n,427,-10.71274650762185,2.633457030883992,-211.9169532456537
n,428,-47.82278964604333,11.40180969718009,-207.7410074076817
n,429,-35.6790460515042,32.58645633675268,-198.9776518473896
n,430,-47.38752375581191,14.7938539955607,-210.4907542789076
n,431,-45.49066490661154,17.52740349122968,-225.8731491565975
n,432,-46.47308592840431,14.04351184752864,-224.1959998346501
n,433,-20.78022824113204,-4.649639850386011,-213.8297312311377
n,434,-47.13984851419141,19.39512275896321,-213.0120907584808
n,435,-46.48364903130609,19.14928141191086,-216.4554300911039
n,436,-33.89291656441817,19.45692003223562,-213.1443153302976
n,437,-14.42441535293153,4.980510583862023,-183.843701108263
n,438,-33.94933389304468,22.03677328078283,-210.8420796343378
n,439,-33.81929123183961,24.71418924026658,-208.7912802973834
n,440,-44.88198184818251,21.19056566269662,-223.7702235237663
n,441,-28.53638037157183,23.77057752691558,-189.6357073388247
n,442,-21.63043835759081,-2.96052843364797,-221.4881692787391
n,443,-48.39597598828135,33.03400489401695,-185.0000340075466
n,444,-33.42067420199857,-7.938189032945031,-209.5648529860617
n,445,-46.60798843578662,21.01772148072289,-219.737953619607
n,446,-44.64565226794347,13.89343607955724,-227.8861927588893
n,447,-40.97685496221015,33.83142469158432,-199.7101631856099
n,448,-39.30375467697924,32.31200626516041,-203.0824170882697
n,449,-42.28278788729907,16.74325012277847,-228.4888069042084
n,450,-45.50900579400366,5.97531826132332,-227.3610719747149
n,451,-44.07487579990271,10.11687873878274,-229.4967559971422
n,452,-43.48585063529483,6.102134426913338,-231.1818075447331
n,453,-45.50137574185183,10.02501230307792,-224.8837857415234
n,454,-46.08168040921066,6.061584904251923,-223.8160666921531
n,455,-34.76302484984462,7.030279190686205,-233.3841495878397
n,456,-32.65089994116778,2.688058509687548,-235.5467482802817
n,457,-37.65552806214723,4.392466954985061,-235.0410365075406
n,458,-30.14688225596332,6.085098577766642,-232.7354966653576
n,459,-7.423088189218831,-3.242738996979609,-214.0874491490374
n,460,-8.229212122761018,-5.818157342716687,-210.0233785774952
n,461,-34.93198150565163,30.47917050825374,-201.960390133715
n,462,-32.39420825431884,27.8888563273947,-201.7809476790386
n,463,-12.26485797436366,-5.246630078787727,-193.0741506553416
n,464,-25.41092116639462,6.045537899897402,-232.4569864423711
n,465,-50.42319621485549,20.84054271475739,-205.2191005165943
n,466,-23.03734293398664,14.41642923343673,-183.6620131703577
n,467,-19.28802250588901,6.956456491403776,-217.8783528038079
n,468,-16.92259971974126,6.924480058615853,-215.9035880189593
n,469,-19.25434206059675,7.542537333893801,-221.634052262812
n,470,-26.60150601412831,17.04755198303145,-192.6676223303033
n,471,-8.952723667701425,-6.426778398024914,-205.6032910336888
n,472,-11.42302756670514,-7.738526600482941,-208.6892915898648
n,473,-44.65664783609935,23.18090602350884,-216.0853936665214
n,474,-29.22309256692274,-7.663846222362134,-223.5781879331249
n,475,-12.47001802708841,10.09260226717197,-211.6236136510871
n,476,-11.4814715126815,7.39885922527079,-213.5101384607454
n,477,-14.69933659752167,8.05612671826843,-213.2677964474834
n,478,-9.834018871078568,1.912450627932943,-206.3274164202012
n,479,-6.063194447869459,-3.399225944661616,-207.9248627108082
n,480,-6.605766825884002,-3.793175925516809,-203.965666835268
n,481,-32.87490279213716,-8.774137390604018,-224.8165136124612
n,482,-21.1611405675727,-0.2142133433703224,-229.3046551500553
n,483,-38.01998449913982,16.28350517672944,-226.3693988828106
n,484,-18.64128215802905,-3.725083775239703,-218.6933484959558
n,485,-12.97933492747618,-5.296917756005698,-234.6729748795404
n,486,-10.92254512923436,-1.196997376803631,-233.7183171147234
n,487,-9.854127545496908,-5.02578367031118,-231.2722515819561
n,488,-12.66619819167505,1.980756418299551,-233.2275707171092
n,489,-12.15383093239649,3.542399670851379,-229.1795700251951
n,490,-10.05988532473448,-0.3347030819841496,-230.0621463993415
n,491,-41.35931703036692,19.65880540940541,-225.9996950735949
n,492,-40.85643466332811,6.087907481371819,-233.5891957244905
n,493,-38.07306052719669,7.857186117932102,-233.6225143424653
n,494,-41.15029814244001,1.727107327829805,-233.0167681658294
n,495,-43.26436582601161,32.10253913405138,-203.2905248117404
n,496,-34.93001453091136,12.62398448268606,-228.0125855288579
n,497,-34.121320967507,13.49131583120812,-223.4047559762706
n,498,-15.34419808540982,-9.411278712087107,-202.2306311581399
n,499,-14.78764985006664,-8.985879011401618,-207.0180150916758
n,500,-24.59128211347442,-3.533426580388396,-224.8895671983788
n,501,-14.88004583208022,6.971030678213983,-227.8790133740499
n,502,-21.53781519456179,-1.50834245972086,-225.7694189502591
n,503,-49.0709854899313,18.69496077426924,-208.6119210522219
n,504,-14.08511049629787,-8.839680990207988,-221.7300905650537
n,505,-16.91504967899555,-4.781533728851931,-222.7884493599663
n,506,-31.84965873866505,22.52764943579153,-205.4271376783574
n,507,-39.07226927001975,38.6598435869934,-189.5334668751831
n,508,-24.81699744051004,-1.364092237823325,-231.8755564404976
n,509,-46.69314912394851,22.98000344729865,-212.8143833312774
n,510,-18.36854654409631,7.20445153044303,-212.6412227201874
n,511,-32.65439659587479,29.94367009019223,-199.3167456388082
n,512,-36.72197548837278,0.3894717267705644,-235.2087033669328
n,513,-8.427893520248958,-2.749919277020457,-221.0237270029533
n,514,-8.955971007925315,-6.994387610922154,-222.9875447106962
n,515,-9.142034636209422,-3.211228779079499,-226.2761936559938
n,516,-23.00087155993355,9.19453581055642,-222.2549987083231
n,517,-8.126421878147632,-3.39940008675692,-217.5451742198834
n,518,-10.03128061471995,-6.944333348264657,-227.9568303553508
n,519,-18.90237023044925,-7.263069743102307,-212.0013082939427
n,520,-46.06761480830087,7.837276731593531,-220.5257694202657
n,521,-46.86637462626673,4.952179292312007,-204.6857818558747
n,522,-43.21043431735315,22.63645010426453,-220.0064418924387
n,523,-18.32549413898484,7.27818914190527,-226.4537557449469
n,524,-37.23786720320099,14.41123222930852,-229.5407300725299
n,525,-6.452258666323948,-2.89842764913626,-210.8144697464295
n,526,-47.61357851049293,8.930574240386758,-203.8633715510271
n,527,-45.03889307497863,2.008748296388327,-228.8975489680832
n,528,-46.17068863465185,1.591989543290008,-223.9772787965452
n,529,-12.59919764727796,-8.880285643679983,-226.2468063819259
n,530,-11.51255059039211,-5.200562826952319,-196.8049031973962
n,531,-45.26492464914224,-3.693353949320785,-224.7484593654816
n,532,-18.69815945601145,-2.148180766975359,-224.2850430839769
n,533,-16.54998932202988,-4.553786586260934,-226.9332724310595
n,534,-22.8985165253486,3.506260285415659,-235.4276855273114
n,535,-27.75529340593573,3.208815925314108,-235.4448191884412
n,536,-17.50069872531114,2.734314538240121,-235.3311616930743
n,537,-46.5370904134252,4.527900358244828,-220.8195454366871
n,538,-15.07087084584614,7.3560129086666,-223.6089830315751
n,539,-13.72421071063231,-6.939267439712581,-195.3812573325203
n,540,-15.85941658929715,-8.50706178508807,-197.9291615333513
n,541,-9.482456017491293,-0.4847369323595229,-223.6781177006136
n,542,-6.261556673298379,0.239700977066979,-206.5205740066112
n,543,-14.37028950784868,-0.400478296214662,-235.3869955288841
n,544,-16.55227087946867,-8.508893622574373,-225.6946468244512
n,545,-16.03677063912587,-8.214972252834315,-229.4693362995125
n,546,-32.52286337604891,25.69311755214798,-204.7618054073951
n,547,-14.85505874255078,-7.557278557576032,-232.5917670020756
n,548,-16.49462257682401,-5.805481423718513,-234.0291472036589
n,549,-16.72400521894521,7.187887924608901,-210.0144247346214
n,550,-18.28662115638131,-1.175754963415347,-227.0527002836125
n,551,-45.08494165379997,-0.8899635857113926,-226.9639663105735
n,552,-14.19702024428959,8.15755430878465,-209.6609602660481
n,553,-12.40572385288011,-8.071428671285144,-230.7292041069975
n,554,-15.8763100904687,-4.808656484868962,-231.0631740868908
n,555,-4.914152679573367,-0.5506885085110794,-203.1105122926071
n,556,-15.6907486228647,-2.909586649861847,-233.5345045361315
n,557,-54.76446859234521,19.18126337852587,-189.4264795863525
n,558,-54.31295176796053,14.83787192233719,-190.7512495457321
n,559,-55.45233894399841,15.74330770327074,-186.592312335368
n,560,-39.84526306782163,-2.388598547577933,-197.5894819149858
n,561,-42.90056268356152,0.5685167212193691,-197.2263620742096
n,562,-55.03213343536926,8.17680173982636,-157.3723713406173
n,563,-51.50840645776424,6.07285199296024,-157.9394466721831
n,564,-52.16460768411981,8.265708561268234,-155.4045020346451
n,565,-59.84317689191538,10.4216455738641,-175.3650415995237
n,566,-62.74407578892151,11.77047785945156,-171.2624211359333
n,567,-62.95963198785675,15.05571407612243,-175.2937057878939
n,568,-28.93915006535681,8.182862710615659,-146.7674345582813
n,569,-29.69171211574207,3.654905896122974,-147.4153211578795
n,570,-26.44916033932169,6.111216092687945,-147.7795220919393
n,571,-33.09908073189323,6.076599095794364,-146.8553889544594
n,572,-26.25888865974077,2.746607211354051,-150.7833675892248
n,573,-64.96232827987315,34.40208367797806,-163.1682483141797
n,574,-60.86592747825632,38.02879781251053,-161.6998820558362
n,575,-63.65735010588702,38.45173138893136,-166.7833691531413
n,576,-59.93527992295658,39.84253457863657,-164.4690043196474
n,577,-37.83105980883613,21.90855116145601,-145.9814940340802
n,578,-33.83610717103879,19.64591152370541,-146.2278976005954
n,579,-33.56746918357562,24.77435197631834,-146.6251913322687
n,580,-30.16587476638757,22.44007342736818,-147.1803394934822
n,581,-29.44888145061364,17.78923441721641,-146.6737351467534
n,582,-60.24970633439059,37.04443276528622,-176.2601150452836
n,583,-60.81680071335537,41.12861939922927,-174.2785652752634
n,584,-57.62395945324868,33.52376079179389,-178.2618346809607
n,585,-60.73056076427991,31.44519197884179,-177.8700821726167
n,586,-55.70019121990395,29.57139954706188,-180.3872753081673
n,587,-34.00565579675155,-4.965223235587575,-198.7136565456751
n,588,-29.43036952895974,-5.606478188844307,-199.2994257344234
n,589,-31.2850026916004,-4.804447429641586,-194.8839301273696
n,590,-51.91654318438884,11.18416509492271,-195.7932569666406
n,591,-49.15986864209582,7.244559123144683,-195.2783968749972
n,592,-28.75216399941585,-6.344171396445702,-188.2107115877861
n,593,-27.65446617613987,-9.554148097889263,-185.7805634310164
n,594,-22.63025807504818,14.67357666703788,-162.7427592691117
n,595,-24.50369227703054,16.25304560108322,-155.7219891910171
n,596,-26.67110339141791,20.20351948151303,-155.7125628475069
n,597,-25.37346486906331,18.12621927179564,-152.3440532189017
n,598,-36.56063655679812,-3.95991626503596,-196.3444052710299
n,599,-35.11460343342441,-3.688038821204806,-192.1274514206544
n,600,-44.32481398356727,0.8651347111251925,-189.0545700099669
n,601,-47.69676989721282,2.818403596495876,-186.6741736546334
n,602,-47.20595561948875,4.009287958828224,-191.6517713293291
n,603,-27.29246428835155,20.74687020130115,-149.1624631034228
n,604,-25.27895232202328,16.04969918776176,-148.7419223511802
n,605,-30.86030616065125,-1.822450273619758,-178.1261461901234
n,606,-36.04743871788451,-0.9486263187540427,-179.911480315514
n,607,-31.93097567120942,-2.596087613878909,-182.202150990844
n,608,-50.05988129263745,6.505908335896036,-189.6351160533686
n,609,-43.93881269218415,0.4491421938055964,-185.6418641937595
n,610,-36.59628556262767,0.3699046016905626,-167.5768005060496
n,611,-40.67929576653138,0.9853138259044241,-165.7668354486479
n,612,-41.67253088199494,0.829077710937561,-169.9395725058106
n,613,-36.4592964143619,0.453563001803129,-163.1412103189279
n,614,-45.84217552423844,4.254426662505198,-196.3811228558677
n,615,-36.93689848327236,-2.736737116560998,-189.0347258121707
n,616,-39.81009183821399,-2.256501999200454,-193.6217269094102
n,617,-44.25463572087013,16.95099749758344,-146.1658686254729
n,618,-47.77544175554861,16.89125643826027,-146.4280302888933
n,619,-45.6011150634075,12.70499805727955,-146.9633589987335
n,620,-46.34569707661876,21.74894904617009,-145.912668598865
n,621,-36.17841210793826,10.00129714537682,-146.3943826351555
n,622,-31.6256408265253,10.35313860168753,-146.3815560018331
n,623,-34.00828616752302,14.55397404164553,-146.1507307907494
n,624,-40.81591067649212,-0.876846199407066,-186.8204069796269
n,625,-41.41052011346601,-0.9920157429092379,-190.3508061426255
n,626,-30.28132257179261,25.22122844934364,-150.0860150553914
n,627,-28.37445048890996,22.49773674327118,-153.4563317821088
n,628,-28.70635047778932,13.38332093639689,-146.5616598952153
n,629,-52.48601023206466,28.71533723841248,-146.4007674966741
n,630,-48.1530467334026,27.65551421027758,-146.0504783039352
n,631,-49.63568284391539,32.47679605216735,-146.3110483213983
n,632,-51.973868341315,23.87482410193884,-146.2464192159532
n,633,-36.78249424086607,-1.67051098383427,-184.1601892404983
n,634,-32.15747069742559,-3.624842903850849,-186.3840885955688
n,635,-24.77815574044155,6.55895112691289,-150.7594966334455
n,636,-23.16604658888102,8.987239867088995,-153.2098177612148
n,637,-64.63457557155166,34.93579412231791,-175.4710415323456
n,638,-64.36325981627185,30.47671370657222,-176.42369912313
n,639,-54.70487080976321,5.629222152066133,-161.0607628759201
n,640,-58.15707739457444,8.212373691845823,-160.591323502784
n,641,-57.98114667848384,10.78633827491286,-157.0145323060713
n,642,-42.40528073522762,2.654988412744576,-157.747354687585
n,643,-39.00402916783136,2.012403932558853,-153.981429341795
n,644,-43.92891325234538,4.681924993043343,-153.2100629320843
n,645,-39.35808869889956,3.829201659126079,-150.3215931128454
n,646,-46.0629062626796,2.914186005748939,-161.5814769961395
n,647,-41.37308799238312,1.521460225860019,-162.1181531754788
n,648,-66.51637346654577,35.88893913236342,-167.8972653648282
n,649,-66.28774633444587,29.77299093727852,-162.6033071230086
n,650,-68.32670304290204,27.52998725216227,-166.2395228285503
n,651,-67.09762808204593,26.04931856554781,-162.9297147700717
n,652,-27.19666596243223,-2.175361451175083,-169.5280391088735
n,653,-29.1354973155809,-1.200475321930744,-173.6445574200122
n,654,-45.16735468040824,1.470362212344063,-166.2813555492676
n,655,-37.37167341453579,0.1805100892312896,-172.2545865584504
n,656,-31.85019947933798,-0.3246452231233839,-170.0641236192993
n,657,-64.70717648804266,26.12049128735156,-158.4698579697838
n,658,-23.73083154886491,15.27941552201771,-159.4401923375781
n,659,-63.18144546867747,31.99675031005395,-158.3828253664644
n,660,-42.5680698975811,0.6021803511426403,-174.7282766455466
n,661,-60.02835127798053,36.45858429423572,-156.7665756992642
n,662,-58.4728809967655,35.63720921571088,-152.6078445761984
n,663,-62.93319353007888,26.42791699646501,-177.5108051287842
n,664,-49.01507658475539,2.68100105081893,-181.9283618229432
n,665,-45.98605788928689,1.294459730989479,-178.4834877987532
n,666,-50.48639609598293,3.356061343649597,-177.2293526160626
n,667,-22.32340777361628,11.89258904180615,-155.9521292801278
n,668,-63.57665003330226,40.19315752944598,-171.0811677081401
n,669,-60.39840562880745,41.42002193782657,-168.3551096007195
n,670,-58.73767001351587,27.10768352837319,-179.6927273939328
n,671,-58.03204082104688,13.51678228804338,-154.1091836727678
n,672,-60.93777598491988,14.09850612952762,-157.317551384533
n,673,-60.70368715432157,17.14250700889465,-154.0322387616154
n,674,-59.76331005898224,22.41578905538541,-179.5670022129434
n,675,-63.3185362088041,20.93230543792281,-176.8460247847989
n,676,-50.40731807962434,4.118259031149034,-161.1240912511672
n,677,-47.24486497343878,4.560377700039483,-157.7326789133258
n,678,-66.91398168786888,28.03987669660633,-175.0699016043519
n,679,-67.85612182252765,32.30728919437117,-174.1923037194616
n,680,-69.23278478121013,29.22876092670949,-170.6895712168998
n,681,-48.69502396834822,7.282721356922412,-154.9011790299651
n,682,-24.99873833767296,10.52932240058469,-148.7633404118062
n,683,-24.03517112234958,13.34237759267232,-152.0891745708615
n,684,-41.71297168246409,24.15140835705592,-145.9034183957057
n,685,-38.23442522414958,26.91465965945486,-146.2742958537501
n,686,-41.67592102160008,28.25621207882239,-146.0077220007882
n,687,-56.06502038433805,24.99660233343337,-182.1907690108905
n,688,-59.07396444544518,20.50766003346548,-149.7399616800146
n,689,-56.29685117003395,15.3518947324718,-150.9120380227706
n,690,-54.96942187645105,19.33214164729489,-146.7948286498295
n,691,-65.87886049618972,17.98826798727247,-162.6481534678532
n,692,-63.51196427886396,14.8191489833351,-161.2365615754745
n,693,-63.79138402066394,17.68085166856591,-158.1260507077208
n,694,-65.42989385973094,15.7529821769427,-166.2972151726206
n,695,-61.01148006492823,32.80580922622242,-154.4744263559093
n,696,-62.22953873839765,28.97672800305404,-154.3525057717842
n,697,-61.82336262746391,9.809126227992895,-167.0517125125396
n,698,-60.32069725046722,8.669342024334934,-170.227034486277
n,699,-58.24617995683022,6.004740068126438,-165.7215742821518
n,700,-43.62379875713516,1.112138222592215,-192.9839857534958
n,701,-57.20361422175632,6.54668029520354,-171.9035004744656
n,702,-62.74952799518799,11.94525529176991,-164.1307441161343
n,703,-63.83837459990778,12.93758743228382,-168.292040553019
n,704,-53.80262523346475,4.066900003984875,-169.4590729412243
n,705,-49.66782223052502,2.411170462310293,-168.2660143835627
n,706,-52.91670144191171,3.627841754261677,-164.8118643669316
n,707,-50.22650601675666,2.9570344614075,-172.5044595886244
n,708,-50.7351289740359,10.63406827385784,-152.3791511867431
n,709,-46.70788507558643,8.934699818585411,-152.6307695218361
n,710,-47.96413016130097,11.09467743808883,-149.8518671847594
n,711,-44.65501596945116,8.663212792946117,-149.7791197248559
n,712,-40.77914342107592,-0.6278859196608195,-182.9168297289407
n,713,-67.73757978176448,32.25378351770317,-166.6647201720203
n,714,-37.3345530053349,17.3431223726836,-145.8746953587191
n,715,-41.29237159085429,19.4108980219736,-145.8430971555959
n,716,-32.01009211628114,-4.335213548396127,-190.3156506262348
n,717,-40.04931559860934,14.23275242410326,-146.174568701476
n,718,-28.2758279285091,-6.238941713723665,-191.5363873803207
n,719,-31.42472373068102,2.186627945257238,-151.2275244282435
n,720,-56.73702301180396,19.46732651826263,-184.0536104047432
n,721,-68.10040671920815,23.99296489063056,-165.4027087959403
n,722,-51.41461294093737,6.145403493082584,-185.0327368323582
n,723,-44.86668795408956,0.778443018596792,-182.5144497436649
n,724,-68.19509833173849,24.99984255588872,-173.6311560533869
n,725,-65.69790153387629,24.31044251414913,-175.5589235519097
n,726,-66.8361456288567,21.59147648233034,-173.8934604932072
n,727,-27.32299249210694,-3.507854583120199,-176.0831827874553
n,728,-33.64796250453821,-0.5048060224260794,-175.0977481334563
n,729,-37.8207228635605,-0.07312996992794524,-176.0876252458844
n,730,-41.42285305369273,0.0554953480958186,-179.1101142987491
n,731,-44.489296933779,26.91294607481912,-145.9217993899099
n,732,-68.52981076693374,34.21348379931639,-171.2586429318035
n,733,-28.41493398351034,-5.505658436024011,-184.0494275877455
n,734,-59.65305267049929,31.15748587557288,-150.5305946527173
n,735,-60.63553134543454,25.89195055295639,-150.5930768725133
n,736,-63.37636830648169,21.3831986501094,-156.0412279195698
n,737,-62.55026742413944,24.82926626689785,-154.3670201825266
n,738,-27.88594095296259,-4.416974417805394,-180.1364278539485
n,739,-27.58285239364384,-1.450933953765393,-165.9897989894402
n,740,-31.57052015446548,-0.06288080745973969,-165.3187405023897
n,741,-28.83094865855165,0.3440569318310764,-162.2550682702983
n,742,-31.04676775334311,0.9906641067778297,-157.2126500760612
n,743,-32.77502643600289,0.3860686393449233,-161.3290819663697
n,744,-66.90782832003211,22.55063755212854,-162.360055530264
n,745,-36.30745557313421,1.707976603791428,-151.2157151606169
n,746,-35.81427524346339,3.554397567511164,-148.6588888982928
n,747,-34.59889062993541,0.8493898730516722,-154.3022104808052
n,748,-53.24564757731673,4.786536104526829,-174.2288294044484
n,749,-62.60622156355483,35.60887403115386,-159.9747002952065
n,750,-60.07374578957265,17.6024110922186,-179.2241621803724
n,751,-63.77475340146653,38.93039581714749,-174.3360650218708
n,752,-61.46292993310166,21.88846928238904,-152.822978253419
n,753,-32.36530517577945,27.84277986108483,-148.4832764833209
n,754,-45.86090602743687,1.369069778493458,-171.4618895889599
n,755,-53.51942635084305,5.458740135444897,-178.1266674323806
n,756,-55.904094039808,7.447662463180338,-176.7101621096965
n,757,-52.53603650008196,10.18022807102846,-191.5025855146671
n,758,-60.57467113808086,9.049650480141473,-163.1142841945965
n,759,-38.24613640853195,6.364564664366286,-147.1146221164613
n,760,-60.79887562062255,10.97796471726151,-160.1513130874531
n,761,-49.07284959931388,2.992416083052829,-164.2690134908465
n,762,-41.41743702233238,9.193343256380256,-147.1076447949906
n,763,-53.39958892605685,13.92123756566482,-194.6613886819959
n,764,-36.63120987941819,0.7000734281878527,-158.5210083375771
n,765,-56.50438309829231,25.1577542604126,-146.7109660423538
n,766,-66.29116785841642,37.8435317833468,-171.3767190896304
n,767,-68.46598612720159,23.54934564853007,-169.6075524890734
n,768,-54.24515490004093,7.951287890776934,-181.2491021160349
n,769,-54.08484217454104,11.14081542262767,-186.1292191493462
n,770,-46.84827850423788,1.660626451230223,-175.111816750479
n,771,-65.14082960653572,15.23502078998194,-170.9742785990207
n,772,-52.61339224816516,32.52623658441984,-146.6523699959931
n,773,-50.61803737315708,19.17834390799552,-146.3987484998462
n,774,-51.28651963658228,14.22547769192622,-148.1512508149836
n,775,-55.9428823766136,30.85918499925231,-147.0704325397219
n,776,-55.62144111561644,10.81253943514524,-182.1590186058417
n,777,-57.04959061360844,10.75113334961527,-179.1805101784645
n,778,-57.01568680251217,14.15616506890278,-182.3104524967624
n,779,-59.95257093162654,13.69950303329049,-178.1748784718456
n,780,-56.850523237394,34.37675679467432,-148.8378490010519
n,781,-65.30429258835603,21.11258594620358,-159.0866042958501
n,782,-65.92751516432487,18.16539041551562,-174.4306594433996
n,783,-67.2294241773286,18.71039659621846,-170.3364686452139
n,784,-51.70827517464704,4.762400754133918,-181.341655293381
n,785,-53.31093841624435,12.60858185165707,-151.1823717156215
n,786,-55.00425583597957,11.12670213636496,-153.8756866733468
n,787,-41.80885410705672,6.003283914794584,-149.4403210739054
n,788,-52.04494405746819,8.591804606277679,-187.8656986854175
n,789,-67.5290285184939,20.18578593601758,-166.431404943675
n,790,-59.4005344752922,28.81315690840626,-147.6211170045818
n,791,-10.01539153449038,2.520409993846322,-173.469235024133
n,792,-6.04547231419537,1.14305040434124,-172.6441654538912
n,793,-7.008048781953049,-0.7776355394404837,-176.6729436953986
n,794,-3.772053489663899,-1.046880488880757,-173.2511529330327
n,795,-14.61929095179922,-13.15622082937254,-188.0304776904215
n,796,-14.57624491184773,-10.9042834486759,-190.2218489392077
n,797,-12.44569181846563,-11.0962784547782,-187.7566529196568
n,798,-20.95969227332756,-11.41381696316424,-192.7533691881363
n,799,-17.6990360192499,-12.86568538089496,-190.1975137585346
n,800,-9.065617275753723,-10.61043649902989,-180.4340571734693
n,801,-10.73547798436578,-10.29384639896647,-183.8009894056925
n,802,-9.144375288598404,-7.779131683260459,-181.7968786795256
n,803,-13.38299702058628,-23.46045315139408,-172.5748515311013
n,804,-10.62434485999025,-22.45359620885663,-176.1483242146068
n,805,-8.507158903627344,-22.24589624009292,-171.2069496424274
n,806,-9.95886650149878,-5.423505618885462,-184.3696367167593
n,807,-10.84622371049656,-7.686565849721276,-187.0110723544423
n,808,-11.57496937081309,-18.89703452033211,-179.0531254854042
n,809,-14.59162922319583,-17.54118950675356,-182.4090215428341
n,810,-11.05819667636788,-14.40189197881823,-180.9540023761665
n,811,-0.4386519260933128,-6.658009732296836,-169.4624172434559
n,812,-12.59451030025944,4.03777653940753,-175.8424507888402
n,813,-11.09137019615926,1.73798430143236,-177.8817123330361
n,814,-12.90793209950507,5.129533651589615,-172.5133112387577
n,815,-11.24571091723649,4.105677664462165,-170.0624587237142
n,816,-13.39844227147419,-14.05008379038333,-184.6901079668783
n,817,-3.542746533704522,-7.152764036587408,-176.1517787871786
n,818,-5.340587765793392,-4.796552597805276,-177.6670276462338
n,819,-3.12176703241497,-3.700516441758474,-175.1672963026707
n,820,-6.620479859492368,-8.286458238717694,-178.7642972192254
n,821,-1.065461126151931,-2.873748474000835,-171.9441910267503
n,822,-10.05937011907232,-0.7851016920441244,-179.8625500737574
n,823,-9.94509328693982,-1.995828142516225,-182.5786005944821
n,824,-7.6295216980969,-16.58979104077979,-177.5370974268711
n,825,-13.02482329101315,-21.46631199890981,-168.9762815757311
n,826,-6.798749328798451,-12.59254299202643,-178.3104708076299
n,827,-3.409890103275129,-10.73517227579788,-175.9916479867475
n,828,-22.94630127877455,-8.278209539966522,-195.8337017166525
n,829,-16.95847911295072,-16.27193505658544,-186.5402402230271
n,830,-15.70757835405415,-20.18095582866123,-179.8593956123013
n,831,-0.7091955750490464,-8.241411606750473,-173.2966598503405
n,832,-0.3608891436037089,-11.09436668624164,-170.1025961963111
n,833,-20.90768085452912,-15.48982193501834,-189.6750802615894
n,834,-6.174651001197237,-19.31074932822654,-169.3910318750016
n,835,-23.80540127146104,-13.87370210371106,-190.7758776427801
n,836,-8.351896344514051,2.548857927311778,-170.5042749600274
n,837,-24.88065708264762,-10.61663719719211,-192.4616670751562
n,838,-8.154562292459909,-4.289788546688096,-180.2155273697815
n,839,-1.19744014471773,-14.87696624607321,-170.5024265018162
n,840,-1.344921697573478,-13.03752570395052,-173.593017993636
n,841,-3.869070996087903,-14.6725825480953,-175.4465580002016
n,842,-5.493340111687123,-18.0770884548878,-175.1570015683988
n,843,-13.64221481073426,-22.10114451734809,-177.159702338108
n,844,-3.161968012541453,-17.62532381558556,-171.9410510920819
n,845,-5.376023154016823,-20.14817532385475,-172.2027046982514
n,846,-7.931586192795622,-20.22432201820288,-175.837798591637
n,847,-28.06305544733759,-11.46285694846722,-171.5270406213256
n,848,-29.7564946507881,-13.26302073941951,-174.4882165193428
n,849,-29.76523353132679,-10.94369530124314,-176.5023972289684
n,850,-30.25652151655018,-14.07536511190464,-177.6488537331103
n,851,-29.78767557647539,-17.22344015463759,-175.3145347734203
n,852,-25.61222086807651,-20.24792088923957,-178.1717768184905
n,853,-23.13899869028908,-20.4087820148344,-180.7640195447851
n,854,-22.51702695243174,-21.16968793605267,-176.2311417184036
n,855,-26.95411504201509,-20.11268568826522,-175.3241438001176
n,856,-29.11224925413032,-18.2929114712895,-178.2568238843331
n,857,-22.1092177403855,-16.66628194978171,-167.7051531264786
n,858,-19.79083422899555,-19.28251538888177,-169.0347996883151
n,859,-25.72682267112355,-14.25313395345311,-168.8777283565569
n,860,-26.70818088366716,-9.806083031932243,-168.4737981739743
n,861,-27.63516641985772,-17.36227149700813,-171.4985587566919
n,862,-28.41787677411222,-16.70003653301653,-185.1830587984397
n,863,-20.490972551139,-20.81248937784785,-172.2598512649459
n,864,-23.45201171743539,-18.61370817627345,-170.0391540547294
n,865,-24.34294800058441,-19.48065401600997,-184.6930643607645
n,866,-27.12456315460227,-19.23926851390903,-181.4549680685623
n,867,-30.0886742890205,-14.89027265726128,-181.567226846485
n,868,-24.49948181645902,-20.22254789215147,-172.8264416519759
n,869,-9.601306491236409,6.062896906972941,-157.5753438138319
n,870,-10.71392659727808,6.185849955130587,-160.6990061310683
n,871,-13.70332083097244,7.39687991673942,-159.2695165284683
n,872,-6.881816203219694,4.615766386372161,-160.2773219728793
n,873,7.615175685551077,5.313242643562211,-161.1644079520213
n,874,8.225425442445271,1.441423376298788,-161.0415155259958
n,875,6.893763439691289,3.763309818386704,-165.0368142517661
n,876,-14.56784250975541,1.38756380011582,-154.0887844657324
n,877,-11.69529749137797,-0.8928251918185246,-154.4234990691172
n,878,-6.26942028394234,-11.43720899401196,-162.5686424313662
n,879,-4.148382018390039,-13.67469714858468,-165.0996737707563
n,880,-8.444408390838799,-8.20053889236345,-159.6376275850515
n,881,-16.58422613136766,8.49351891245503,-166.1040815839799
n,882,-17.31191553095035,8.54433873246775,-161.8472469558205
n,883,-5.874733990370407,3.268254915052041,-164.737056365269
n,884,0.7519363958107167,5.326043779227146,-161.7754216247604
n,885,-2.176949382649704,4.348556836909014,-158.6525187503737
n,886,1.705830388465159,6.047449300731292,-157.6154908033444
n,887,-3.099524579647944,3.553706765527639,-162.249032433856
n,888,-4.265871177458385,-0.1431114862374555,-147.2335984319076
n,889,-5.906106426994926,-0.1112003300210239,-150.5146136322406
n,890,-3.278623133182559,-2.228676033529399,-149.5884408857818
n,891,-1.892328565624023,-2.887868125427941,-146.9326678214521
n,892,-0.5357081743851811,4.21461501912687,-154.9188487449501
n,893,-5.508473172514727,4.435971996464802,-155.7272925182088
n,894,-4.120692686448453,-7.74960989242358,-160.3643695919117
n,895,-5.347663776401183,-5.812802053751541,-157.574388210789
n,896,-2.677567662884919,-9.214249578010778,-163.6277835248508
n,897,-13.24859969413253,7.140470686412812,-163.6339249393697
n,898,-1.008130496394876,-5.960088276457593,-161.8957588523136
n,899,-18.40101911458046,2.13877595785024,-154.5127162531551
n,900,-18.64339654825704,10.56264034326754,-168.9478015462612
n,901,-9.960017317217591,4.901759514137482,-163.8427483502962
n,902,-13.65076011405451,-3.280902035987341,-155.9020145928406
n,903,-9.71385579051027,-5.004630732997666,-156.3483090298005
n,904,-7.175503552680025,-1.562524808400966,-153.3319638049052
n,905,-4.495789981353624,-3.714652743749145,-155.1056190153894
n,906,2.732642048673374,-4.067621281937551,-163.0015837618471
n,907,-15.31050086478626,4.878277370589792,-153.913884634491
n,908,8.626362473711183,2.356394590075098,-156.9163805246322
n,909,-3.557658939939159,1.980738435309435,-167.2172317944392
n,910,3.594518019579763,7.867541356052475,-160.18250656149
n,911,3.557448927902505,7.795007976346811,-163.7343108218089
n,912,-1.106682322899403,2.843133868104632,-165.2542380161866
n,913,-3.420699008605711,-2.032256765748962,-151.8653743833771
n,914,-0.9494162694802069,-4.784739094743048,-157.6280484939276
n,915,-9.305857201897204,1.357770380293204,-152.4241174420218
n,916,-17.24485925141789,7.408689805670346,-157.6860932430394
n,917,-13.0282672454282,7.465174321745961,-155.7416656396131
n,918,-9.141800363348977,5.915100182757882,-153.9871961699529
n,919,2.202947596048655,-4.951837335947039,-159.685780057207
n,920,-6.261735665258708,3.663445887535842,-151.1789326351097
n,921,8.553828522606658,0.1961856201506646,-152.9009181390764
n,922,7.066717577028989,3.877017196268386,-153.377292246101
n,923,6.31215168028135,2.212830577740716,-150.2291376826819
n,924,1.32095256549474,2.346757071465261,-167.405034282489
n,925,-0.01632596846743128,-3.272187451124238,-153.4524068698624
n,926,-2.38285151456033,3.43997027089822,-152.2082734592527
n,927,-19.12679389577741,5.330652552485146,-155.3071484286311
n,928,1.896824602871654,5.585408806316739,-165.2924855808563
n,929,-4.428501789150218,2.235445802124045,-148.6343082550595
n,930,-12.0691951055359,3.233094804284824,-152.7406075061315
n,931,5.22374774655403,5.058413471189342,-151.5094226413968
n,932,3.353510415457315,6.028202561185251,-154.0232878085384
n,933,1.808360739692888,4.143852772065578,-151.4721892924048
n,934,-2.804077386762726,2.559684220987359,-149.7697036930222
n,935,6.273026137289618,-1.402341295726495,-163.8130271092186
n,936,2.767234551073201,-2.938218948018973,-166.0004500479777
n,937,4.298249307731234,0.03055034076636987,-167.1153765784216
n,938,-9.404748185238615,4.170311731074496,-150.3886997995414
n,939,7.595916536634157,8.311163314013893,-166.1454029385699
n,940,6.49679543622654,8.069684534656476,-162.0789698614294
n,941,3.831919393013335,-4.694740141949495,-155.4655883550791
n,942,4.49378702639275,-3.43817938421466,-151.1799765643824
n,943,6.701432807004567,5.957559356368823,-156.7244319349362
n,944,0.2791071916138099,-2.236385446486104,-150.0205472428948
n,945,3.555625677908291,-0.7001965082928914,-147.9380773815627
n,946,-1.269859654666941,0.3097472931853441,-147.5935882102346
n,947,9.74735465293068,-2.317150989258873,-161.5364083096765
n,948,0.07819174855914808,2.625139389243115,-148.9769208060307
n,949,3.290221983788228,2.478086293727181,-148.7369011114716
n,950,10.10980763742827,-0.3489963702613537,-158.5288769487036
n,951,5.798438719747111,-4.325912499108719,-161.4720556190717
n,952,4.055458241891714,6.182702682670271,-167.4184481472244
n,953,4.813714325780083,3.450457897951788,-167.6314508535755
n,954,10.60540979392341,-1.069941112773433,-155.4322760772198
n,955,9.735540601502636,-6.526746483563672,-156.8344633260942
n,956,12.5065314352705,-5.838389828299333,-160.6812381764938
n,957,12.76111250824077,-5.85899383656616,-157.084096449578
n,958,12.29110073539922,-2.906072670748083,-158.160265432634
n,959,11.93084628818145,-4.13920719923091,-154.8764668094013
n,960,5.987988891591065,-5.719698602550367,-158.4344333146994
n,961,8.372841876592183,-4.450135736121011,-153.0252619726355
n,962,7.536566080517506,-1.600833904997506,-150.0627698844642
n,963,-12.5417708546528,6.712935780145842,-152.4192706659294
n,964,7.230403873538069,-5.900884918078854,-155.879014093322
n,965,8.108804473474905,-6.691392077657071,-160.5937520512371
n,966,-21.63479533582775,-12.54547960033455,-165.4326597705228
n,967,-20.84900645317076,-14.15915624240957,-166.6413000709579
n,968,-12.48033727627329,-14.38732753692713,-163.0358094844646
n,969,-14.09382076571865,-17.14456390772103,-164.6944969655054
n,970,-10.5047320321428,-16.83785892471929,-165.7465988693672
n,971,-15.87327690793603,-15.38083284959112,-162.9005511332723
n,972,-15.28383772048407,-9.81968477598473,-159.5751547807328
n,973,-13.35033148653877,-11.70279218519117,-160.8311977241835
n,974,-20.51127028588715,-15.26104374897763,-163.5253963079765
n,975,-20.63413893714859,-14.13180049320398,-165.3532809614502
n,976,-24.79418479086007,-10.81553357922643,-161.4107169926308
n,977,-24.44475689971642,-11.37154031881255,-164.0829441435412
n,978,-23.12090378512424,-12.14075902914797,-162.2584464503841
n,979,-24.94552222424443,-3.117781614237924,-155.4436985905213
n,980,-23.07513840706275,-5.64413741729738,-156.5712960927151
n,981,-19.24912922189998,-5.490093127201143,-156.9252514079052
n,982,-26.57010126483154,-8.57074450354857,-162.4014179326981
n,983,-21.78471979245991,-13.00321997834568,-161.9930496126206
n,984,-22.6229289912155,-11.31191987854709,-159.9836708400781
n,985,-21.47315001321961,-8.804591763176095,-158.4990986117192
n,986,-27.30916315593219,-5.373452229665039,-158.6892279068975
n,987,-24.81853384928779,-8.872313849159582,-159.069744214768
n,988,-20.27730301671777,-12.9814917578449,-162.8726981383595
n,989,-20.92234819166773,-12.37467468694391,-162.8561569062111
n,990,-21.07456188948762,-12.74234759660718,-162.0605981973045
n,991,-20.41915860681347,-12.28518897178353,-162.2986029725111
n,992,-46.62384595358992,20.80724546649917,-167.1201500389548
n,993,-14.14390006631843,-5.578054774339532,-168.8687906525373
n,994,-41.97745560138591,17.80058551718639,-180.8496791866211
n,995,-36.1154321569797,10.34006881319214,-188.6829489302756
n,996,-17.27459782171027,-13.14427513886364,-174.1474426378952
n,997,-50.11378753052047,28.91003618325449,-158.579074278916
n,998,-30.9397244226296,4.927478075759332,-207.1583637332292
n,999,-37.29877445713765,13.5674985086286,-162.3864258303811
n,1000,-40.64409177627947,20.17084482401507,-196.7809962087438
n,1001,-42.18832339709421,29.27716722868599,-173.4292617200224
n,1002,-34.95670961664676,1.987275817729561,-217.5583207185917
n,1003,-33.08244429696555,10.85162291838926,-173.2047600595254
n,1004,-57.21389789649106,24.14918120437283,-167.6522358759148
n,1005,-39.91225803232199,26.99637276491053,-185.1651837783537
n,1006,-43.72903745614089,20.25218196861848,-156.5836882637637
n,1007,-20.46830420344657,-6.865162323219159,-163.6371682369854
n,1008,-20.16401537815631,-8.113771036641818,-170.1873398763793
n,1009,-36.60251028908009,10.4184267684727,-199.5978656637303
n,1010,-44.42105422288525,11.85270887182211,-172.3939057095353
n,1011,-17.79462900686553,-5.684556791679084,-179.634271949255
n,1012,-37.39465249711331,20.20130823497417,-171.844287017581
n,1013,-28.10983084819177,5.136789691048941,-187.2447743134353
n,1014,-53.13515147625491,33.12796025989143,-166.9916536104304
n,1015,-53.0206983789079,17.85445071531537,-160.8340893482373
n,1016,-19.0728406637278,-0.4153669264288222,-173.13365188264
n,1017,-21.62321851730912,-0.901421753941249,-188.7160319539242
n,1018,-41.62075687093676,28.55571720533985,-163.5996700728215
n,1019,-50.67642906228902,18.75167100008278,-176.0216882715147
n,1020,-40.44586482004157,18.24374293949391,-205.6904463973871
n,1021,-46.33017777543419,12.06146828699413,-163.3858589583682
n,1022,-44.59126711395768,13.89907819559752,-188.7526797806876
n,1023,-28.68149296369085,4.613270914535633,-197.3438552054832
n,1024,-18.12516106113594,-15.91635261366504,-171.3844838428587
n,1025,-39.12772446057537,9.006087053451102,-180.0038865545082
n,1026,-37.48662129078852,9.075796060268438,-212.1937824878324
n,1027,-36.45298731909904,19.41241204408153,-188.7630664787304
n,1028,-41.42954923504539,28.45111537128931,-154.9275656422907
n,1029,-35.65552020676962,17.29788090496614,-154.5482890527778
n,1030,-27.4018571479414,6.393922104081629,-178.4420568081966
n,1031,-50.72102404512268,27.02698326755149,-172.9149075245712
n,1032,-10.20855034207715,-11.67417016283312,-171.4551329802117
n,1033,-29.6432949134514,9.12162033426439,-164.8583781660515
n,1034,-21.45091838351515,1.618265734464687,-208.9184432626231
n,1035,-55.96035438619809,15.87345197572627,-168.4593474591775
n,1036,-47.3359291227104,36.43709025082767,-155.4611650282393
n,1037,-33.41678759420365,15.0417796051892,-182.0588611908841
n,1038,-15.52498455093831,-0.5563784887047154,-163.0096472767697
n,1039,-20.88344904014358,1.397808203041032,-180.4708640752064
n,1040,-36.80006545099906,21.7719159282965,-163.6927626522072
n,1041,-33.62187600328591,-0.6751782342428374,-225.1333488098025
n,1042,-36.65945228252136,24.14388900117816,-178.6035630693321
n,1043,-31.30116408813888,10.16413604892188,-154.7328302283062
n,1044,-46.03567155879134,25.0843061616574,-179.6419934950569
n,1045,-37.90315504525862,6.190290953426191,-223.9278146615899
n,1046,-27.552760170868,4.166709448684942,-215.5496668473442
n,1047,-26.12835533315339,8.87816528049181,-171.4182210930908
n,1048,-46.1903951878235,35.24380417042984,-163.3932843540581
n,1049,-40.62050808574224,26.97172756887939,-192.9424028182075
n,1050,-7.887790053082831,-3.778524236255441,-165.4726212826711
n,1051,-60.36952224588932,31.16607485528613,-169.5999704537113
n,1052,-45.6354570360941,21.63478440430542,-186.8794677962786
n,1053,-56.75511885049563,24.75872637848996,-159.7673938007409
n,1054,-15.19510774211096,-10.47561563027832,-166.4203104287174
n,1055,-38.46964142813601,5.538634677805429,-205.3472054045264
n,1056,-38.69089309082308,8.298164981943266,-168.1778595224886
n,1057,-46.92006855611147,11.13879971646514,-180.0434755126057
n,1058,-18.49473651947037,-1.203615269417206,-197.5637247194837
n,1059,-38.47942617346833,31.90624406116243,-188.8985807662549
n,1060,-21.20787289547704,-12.66607582168113,-180.9635659455487
n,1061,-46.84860633710274,35.3097973423471,-171.2845988751894
n,1062,-51.25637693788448,22.17087743409617,-154.1683923411144
n,1063,-35.95878355996611,4.64867643822329,-194.1994053204346
n,1064,-39.03906838163577,10.35218177499456,-155.2349781871225
n,1065,-19.12382497506727,-7.083573626564981,-186.4182171618606
n,1066,-36.06986835937423,0.2272478765134514,-210.2394046159145
n,1067,-12.47251855061608,-6.583249573202854,-175.4279104599548
n,1068,-35.47028634233006,12.94768066752866,-206.3474799910958
n,1069,-41.30290005782327,9.756196098561492,-193.9242573598975
n,1070,-16.00260032700693,-2.418264215047329,-204.2436105375158
n,1071,-21.80028714937944,2.830062715723063,-161.5892252869249
n,1072,-31.3073350984995,10.93240385851136,-194.3618654508489
n,1073,-32.46595236495678,16.10489578944187,-167.7115866581774
n,1074,-48.56419835499134,27.647273608641,-165.5749805903907
n,1075,-51.68401218791393,12.15556947455727,-173.0612972052898
n,1076,-23.74683232891654,1.59544767513955,-201.913551206505
n,1077,-38.86358638529562,-2.799831587960438,-220.5871335573892
n,1078,-40.77790808242634,33.71499202725573,-168.227325256795
n,1079,-42.95128486606237,13.91621607962915,-199.6268330133196
n,1080,-49.51199212008159,17.15722769803927,-182.8863170543979
n,1081,-27.77549049341803,2.32281591386911,-222.4137093286532
n,1082,-44.22805658048145,21.14142375450569,-173.8986597636696
n,1083,-36.95952892312987,26.87894225674421,-168.9495376046036
n,1084,-39.60214150196907,32.10342221719591,-179.7872597594275
n,1085,-42.17248609296582,7.36346044344643,-186.2779184256724
n,1086,-16.34034301400881,-1.735150663277717,-210.4776142381354
n,1087,-32.22573161427933,17.36084119252682,-175.5815054824685
n,1088,-19.6176515151698,1.338423590855955,-215.1701624098959
n,1089,-35.01985458386532,16.28662716923581,-196.4537069494265
n,1090,-41.34733451476026,16.10097869708758,-167.6243000876622
n,1091,-32.71138356735555,8.061749272116927,-182.7728099619183
n,1092,-38.67953551258184,14.37564506238073,-175.5223361125026
n,1093,-44.77049735296822,23.06943837034457,-201.2702659168298
n,1094,-26.19371564860892,8.202522657358841,-202.9734458049794
n,1095,-31.26456651883394,14.55321974247145,-189.004419506695
n,1096,-56.27970198613838,31.82584420570977,-160.7089060598025
n,1097,-33.81464289121384,1.883720699290637,-201.4222316227395
n,1098,-27.34207029260797,0.4682923069782916,-192.1255160646419
n,1099,-22.89363520149143,3.318495435470299,-168.5354346394109
n,1100,-9.493654339722548,-3.001625916853591,-170.863160191494
n,1101,-36.99093598900728,23.75180417590868,-152.5605616922352
n,1102,-52.05998494418318,32.34471709632587,-153.2548554645353
n,1103,-30.71070024669731,14.25569304048786,-160.3095798654066
n,1104,-48.34950879201726,22.77186246741003,-160.86202740997
n,1105,-23.73588253592282,-14.88012977887197,-175.799306667475
n,1106,-16.73550971616317,1.568948336609012,-220.2382599951726
n,1107,-47.95905046926939,14.78086897616783,-157.2077255709776
n,1108,-38.18824032508349,24.48803584252902,-201.3276961059405
n,1109,-34.71228147117876,3.832263112208834,-187.625315480217
n,1110,-34.72537311747033,7.310619383156016,-160.2518500485209
n,1111,-41.25309562836533,8.325781676619101,-161.1951169527934
n,1112,-39.6713597162799,15.69398878719754,-212.1306665940679
n,1113,-39.44740771659255,10.60845157245779,-218.7302676459209
n,1114,-25.51681893185646,6.924420155881599,-210.0642479999408
n,1115,-29.57471783890606,-0.6782832165873387,-210.2761375402037
n,1116,-52.32537062251185,10.34468412690541,-166.4045887066856
n,1117,-19.08402840078433,-2.445950102636997,-167.4733744267421
n,1118,-28.14679114879086,12.58821385247455,-176.9258623726536
n,1119,-35.96776790116691,29.2030938648649,-174.7962654074263
n,1120,-10.03600545757578,-8.63792676113383,-166.8775804762115
n,1121,-35.5717772628561,23.07711058163862,-194.017253571607
n,1122,-27.3972595713218,6.491747098729363,-158.9676982315993
n,1123,-40.79330593885149,-0.06077713458999368,-214.8736538636645
n,1124,-59.092740891993,19.48059982873429,-163.2026776284017
n,1125,-56.91435458944815,20.49672731661915,-173.5411829406799
n,1126,-52.50402649706054,33.15481209628643,-173.3576884083608
n,1127,-6.069261668352647,-7.662336627456347,-170.9731832613069
n,1128,-21.78085631975213,5.242085473397529,-175.1833659345601
n,1129,-57.16425034913435,27.05774015979961,-173.4239852887875
n,1130,-43.87223605786782,7.040288778876662,-176.3903660373533
n,1131,-34.82144567923185,25.37564203225642,-188.3092080979411
n,1132,-41.77865653241744,11.95846984663967,-205.633199740255
n,1133,-41.8095120402463,33.19933538695593,-159.2007065579588
n,1134,-47.34691757881161,30.68408314905454,-176.8966895572117
n,1135,-41.38909426137535,21.22619780792792,-210.7560857687384
n,1136,-22.44252721927972,2.609960464370229,-220.0775895621514
n,1137,-34.4225713458401,5.692652732964163,-176.9504265124452
n,1138,-52.33369983517663,37.04078747378121,-161.7163388714075
n,1139,-43.36517707517687,14.35229946273198,-152.8177702889325
n,1140,-33.91313509433479,8.135564904632897,-217.2282268671311
n,1141,-31.14976339484222,9.452978973530204,-211.6395404169811
n,1142,-33.07615337187595,-3.519815531282012,-219.0971939596867
n,1143,-45.55382946699521,24.40034844212538,-151.8666488652214
n,1144,-42.63205699827399,33.92362586417505,-152.4296696599663
n,1145,-46.15505469869255,18.89452457536715,-193.0533108565676
n,1146,-12.59887926836556,-17.05878633706003,-173.261483422925
n,1147,-34.06660948360118,21.06640964846768,-183.3012485753025
n,1148,-15.17510032095056,-5.894472499693486,-163.596370297046
n,1149,-19.46010774863865,-9.684089553772449,-166.763091021738
n,1150,-62.33920344930937,25.50552947390303,-170.6317615612037
n,1151,-39.9324133196024,13.20266129780976,-184.6029516174524
n,1152,-39.86868581859375,15.6842003159071,-192.4704992930072
n,1153,-48.31062503088302,14.95165885493323,-168.581312982667
n,1154,-41.30044176661981,35.26834231941538,-174.9132960462714
n,1155,-61.09610958081876,19.52872766173904,-169.0687571136044
n,1156,-46.78873351572492,7.96615503025767,-168.0968829225579
n,1157,-22.30503566017605,4.296185211884001,-185.6279020872282
n,1158,-44.10282058396661,17.77844892220512,-162.2918252890759
n,1159,-17.1814806829713,-1.54648503024237,-184.4583209453279
n,1160,-39.46993066464051,0.6128193758695244,-225.4827348245607
n,1161,-40.91319875203759,2.753467084820211,-220.1369610852661
n,1162,-26.8069845782924,1.583564414599318,-182.3225198146312
n,1163,-41.47962196606629,4.526059998610561,-210.7100662303075
n,1164,-22.96699728151966,2.732949482344125,-195.8769200983539
n,1165,-4.663384830857308,-1.750678403628232,-161.3677649474739
n,1166,-52.01972947543012,21.74534082019377,-169.9818759405117
n,1167,-14.5984862872201,-1.116637467332849,-215.7863215199062
n,1168,-39.07911392970126,23.89726478449326,-158.3660363915388
n,1169,-29.84404032654247,0.9913379385253336,-229.5256235600527
n,1170,-26.92112760087272,9.751219336767779,-183.4797776133743
n,1171,-14.27116080192963,-0.3990415435622134,-170.5578331803777
n,1172,-42.91322345818543,25.42405084686099,-168.7125505183597
n,1173,-55.3846061790566,26.98802932769043,-153.9852958477822
n,1174,-60.31972959535415,28.0741324613798,-163.7956165349135
n,1175,-52.14822593395892,13.77989607172438,-178.600213383049
n,1176,-10.1641419201436,-0.07709982962576856,-160.9429249801531
n,1177,-51.9068450728699,12.00428335881837,-160.6989819870481
n,1178,-46.33512885850739,13.03406873279904,-194.4592262172091
n,1179,-22.73821654436765,-3.414143073736919,-183.4389506875521
n,1180,-32.91002652884735,5.886317986813189,-169.243952410671
n,1181,-45.42540578154969,28.20937273584078,-184.3705407520479
n,1182,2.874458930653137,0.6941048380121462,-159.2069830260895
n,1183,-28.96187664038706,0.02386488321946079,-204.3730102299059
n,1184,-34.8175945227695,27.0750233492594,-183.067715655465
n,1185,-21.73055544868224,-5.317586042223843,-175.1941511369321
n,1186,-13.34738574895567,-14.3118312418972,-168.806527100303
n,1187,-14.58611673593433,-10.34390258424725,-179.123232760086
n,1188,-14.83222648486413,-9.840214438813735,-171.3416154805105
n,1189,-32.04033980473732,9.238145222827029,-203.2185181639078
n,1190,-57.10659533195429,36.49749461090542,-170.5855263061291
n,1191,-26.55372081206441,8.008809796646288,-192.2417076093731
n,1192,-47.10112548885841,9.996175208077913,-185.5574067765187
n,1193,-37.78254908152643,4.408599349620289,-229.2284109726953
n,1194,-38.66955303840594,8.64101146931558,-174.0808982416752
n,1195,-19.48213897805513,2.803846875827962,-224.246963651568
n,1196,-45.60315253120483,15.78670235531384,-176.6411722528218
n,1197,-40.32043670660166,15.56967646457837,-157.7268130015905
n,1198,-32.81275317127876,19.67326090512712,-160.0110842915927
n,1199,-38.52432403466582,4.851552883856065,-199.4975520679245
n,1200,-16.84587280873054,-0.8056528363130022,-192.0121787997253
n,1201,-36.17689746192941,18.92133141903624,-201.6351971232825
n,1202,-56.74353257026307,13.2624839615551,-163.4486707580952
n,1203,-16.90547904058023,-5.554751016752309,-173.1455946129263
n,1204,-41.42819455526032,21.56184863256303,-190.9181018268444
n,1205,-28.52609229380995,14.10484005934261,-171.3919725696865
n,1206,-16.22965753546779,-0.542797337538437,-177.9828014856364
n,1207,-33.42482086279462,24.04919800825824,-173.7375223612231
n,1208,-33.0650532687329,21.94207896555654,-168.2467446379923
n,1209,-47.08242808190141,18.76459922118889,-151.9153772184187
n,1210,-46.77746818855294,29.92370628686253,-153.1952049228498
n,1211,-54.18424101209105,27.61852005901357,-164.117388009044
n,1212,-24.64844262722942,0.06104774815201264,-213.1873051668184
n,1213,-16.45592868151114,2.580747987658528,-207.3775798987783
n,1214,-58.40886889278675,34.48653184863714,-165.4609923333929
n,1215,-30.15738718913863,15.7628433655637,-154.824643991831
n,1216,-53.115387658434,16.11986726105302,-155.5238804990366
n,1217,-41.72642289712643,24.7334043677929,-206.033159161812
n,1218,-32.55900063613537,4.004510679462353,-212.7528144427168
n,1219,-44.82706023857825,23.95387423736859,-195.5137634916748
n,1220,-51.75658688885274,24.25088843002857,-178.1101770915029
n,1221,-40.4286073348587,19.20373453905325,-152.0230576865429
n,1222,-32.73633784952087,4.940950891011972,-226.3777860736179
n,1223,-40.27218643232813,21.31588082723381,-184.9924013379456
n,1224,-35.78745652261897,5.987503856753056,-153.9917439577503
n,1225,-44.8320260730908,26.91558044231648,-159.2098582615505
n,1226,-36.67806217576814,18.47475899571974,-178.9249482401511
n,1227,-36.92639813728609,27.49554807055986,-196.9392625880832
n,1228,-36.92750581599903,13.39477644336698,-169.9122158865963
n,1229,-46.43516402777768,18.29695544058757,-198.6898579794975
n,1230,-20.11926058550385,-5.455602630075134,-191.7800992850369
n,1231,-28.61700699750778,10.59992846540825,-207.0820813292549
n,1232,-28.86250119448847,-1.084975648310145,-216.5324134779906
n,1233,-49.78522540194289,22.80027036317574,-183.2125758259126
n,1234,-42.32012338422177,22.9543375562533,-163.6708853496658
n,1235,-32.82350655425483,14.51719752486279,-201.7447841673752
n,1236,-52.68838504812403,22.19590923766223,-164.4072716039124
n,1237,-17.31709836384026,2.946375057353534,-167.1141900615288
n,1238,-45.0849885712403,26.44251615962912,-189.6465708179917
n,1239,-49.88574405205533,38.05121971537551,-167.0349629092631
n,1240,-35.68142484246802,28.87063158719631,-192.0730393465864
n,1241,-36.96559523074578,4.199133593885828,-182.3339346134946
n,1242,-15.68149099944375,2.969712667872211,-212.5219472143035
n,1243,-48.93494626662851,17.40218013344218,-188.4400564694591
n,1244,-5.54032842237972,-12.50431059459875,-169.9245492669465
n,1245,-22.15389454826513,-11.55861014030735,-186.1737117323609
n,1246,-56.47134185183907,14.9262693888921,-173.9586449897568
n,1247,-33.25671309969216,-3.207427207652666,-213.5630208481758
n,1248,-23.99654986041361,7.466595755165247,-164.4938291367586
n,1249,-42.54910416936345,8.47576389192058,-201.2117347628106
n,1250,-45.25435413028566,30.52287905900753,-168.9755399862622
n,1251,-39.64859794446333,4.248423386876806,-190.0935796060918
n,1252,-56.60882307841474,20.79624477918127,-155.6448328920475
n,1253,-49.57869990042544,8.499635100855517,-176.2827938826668
n,1254,-12.26116872569338,-1.851784459240686,-166.3743676771452
n,1255,-32.4702926260543,0.6024287630007708,-196.0737766590361
n,1256,-30.92110996455698,4.657360573780518,-191.9619175016921
n,1257,-21.6334568641693,-9.699261817424684,-162.1307595239452
n,1258,-17.90575302369195,-9.495255869523032,-162.7018613933687
n,1259,-35.34442374685781,12.50956151665944,-151.4547820602783
n,1260,-44.18560511103163,10.75032197070206,-157.194320629087
n,1261,-40.24524621967727,6.045720931643006,-215.8187680473501
n,1262,-28.17252337966492,4.107220422414271,-166.8575474114687
n,1263,-28.55582778358478,11.3717355631889,-199.1239992377224
n,1264,-39.88853440517469,24.40969171927004,-174.2303041305345
n,1265,-25.25789877025393,2.562054683010751,-227.1721796943723
n,1266,-34.30678874768112,11.02574668002069,-178.500971924727
n,1267,-31.85288002607784,3.027236292178721,-180.9243781104603
n,1268,-22.85836243002353,-7.593711980636567,-179.9854897590243
n,1269,-29.22371445100503,4.500189795349151,-173.375252688132
n,1270,-21.91714132137392,-12.32414900813101,-172.0168495740537
n,1271,-47.19030607269328,41.30798420652562,-154.2378802679536
n,1272,-62.72423320057445,23.59550375138042,-165.6014275721305
n,1273,-44.95127600678718,6.32068143204532,-181.6945397913385
n,1274,-14.20695592663135,2.349344973799735,-159.0606667441319
n,1275,-20.85144476477935,-2.701890783447631,-202.3793174414994
n,1276,-26.94734468319522,-0.7346341712551192,-197.8851738420035
n,1277,-8.136699260487951,-15.87423027707077,-171.9428178928205
n,1278,-13.02385122048605,-4.66717955002692,-179.8870567038471
n,1279,-29.61523241676573,6.502460028950128,-219.793494888823
n,1280,-41.73133296713819,31.88648893638384,-184.8024138038749
n,1281,-14.88643734812619,0.5105584365168852,-224.3693580069991
n,1282,-13.78954743890707,-1.551285677154362,-199.6603511573757
n,1283,-50.70745290250091,26.70815810490716,-151.1662007172787
n,1284,-41.14603249642879,27.08138605280562,-178.7080212262587
n,1285,-22.20866580398006,-2.491018707690311,-161.070504918401
n,1286,-36.60631959507595,31.82804721922471,-184.072957367015
n,1287,-18.41726681554235,-15.33351158793561,-165.431373049417
n,1288,-36.06394765989887,27.39586277564947,-163.3629319048792
n,1289,-30.92007668808158,9.229767265419364,-189.2065969713823
n,1290,-22.66413750984163,5.274689017312873,-205.4254397031681
n,1291,-45.18901637201058,8.871656692406066,-190.3960132915583
n,1292,-25.34113729049011,1.511812378275691,-177.0414878661016
n,1293,-35.09130372636978,12.99351114653057,-157.597026193085
n,1294,-14.77101149859714,-7.254714963546931,-183.8591243958292
n,1295,-34.55907260502533,10.77139357128985,-165.961130949551
n,1296,-42.68485681390364,6.056548997604319,-171.1517559907599
n,1297,-22.43313224246357,6.628365977850375,-180.6929163703868
n,1298,-23.56248873170714,3.906665825659219,-190.7523772623531
n,1299,-17.52051662857849,-11.33273259737078,-184.4692933589249
n,1300,-26.77314425564857,-1.225821354413095,-186.9842904362562
n,1301,-48.22416041114281,40.0824943443083,-159.5529433088341
n,1302,-36.47761645812741,11.89940111910731,-193.9033531570469
n,1303,-39.41988702761722,10.08394293551682,-227.0901851239305
n,1304,-45.05685144539398,20.701706680849,-205.9253503703967
n,1305,-27.82614239610352,13.99718405534527,-166.0917123493853
n,1306,-12.1850130621426,-1.785366035104278,-174.7206100979101
n,1307,-54.24115769410562,28.52925119304002,-169.3013394958566
n,1308,-33.51716751377189,6.286861171430538,-198.5605941845221
n,1309,3.838610972663251,0.271586287963637,-154.3785118503974
n,1310,-45.03272729073724,14.52509116841087,-183.5689406167218
n,1311,-50.41415923271246,32.24892366844691,-162.6033811924711
n,1312,-22.90497132399863,-2.432572735483232,-195.0230424020714
n,1313,-36.95752254603566,22.01692091955109,-205.6618793911079
n,1314,-42.09772813989201,27.41213160996973,-198.8013356266403
n,1315,-23.69776922807262,-5.54258079828022,-188.1216716451414
n,1316,-41.31076060823955,14.7732820251006,-222.0453311756393
n,1317,-32.80024348794209,18.27957485628052,-192.2360286698102
n,1318,-3.515952390763403,-2.385483473137893,-165.7752022620123
n,1319,-37.42915566447486,0.3392230858422356,-205.1098195298468
n,1320,-44.08037705919304,37.77917384460612,-167.5214611270187
n,1321,-22.32788058971363,4.463420978905384,-212.7038797495432
n,1322,-36.59276923233393,27.49275816288015,-155.890155530469
n,1323,-38.55486789291591,14.36272706623968,-202.3507636733424
n,1324,-46.55721306904739,19.9197471435957,-179.6332386480571
n,1325,-37.411153872048,33.36380589076182,-172.1158898911889
n,1326,-48.9697805653412,17.36020069053048,-164.0352887685426
n,1327,-61.90369130630507,35.553192673125,-171.2613064467418
n,1328,-41.54669526953967,11.49334190429736,-165.2768811256463
n,1329,-31.97735521865408,19.23192622490576,-151.2079517678231
n,1330,-27.21560506123223,11.50411780471447,-157.6377167292835
n,1331,-38.00561471591178,-4.563525489146828,-215.6126620624254
n,1332,-54.08931943508694,35.03762503839788,-157.23297646704
n,1333,-28.61798641115696,5.877160624011448,-154.0509195786906
n,1334,-41.75106493400496,11.35644375668651,-214.1218166678212
n,1335,-45.95789260409797,25.95050884410735,-174.5622645002079
n,1336,-36.47315762618211,18.03613834305906,-208.9019123063927
n,1337,-32.62573684924966,21.28466164341141,-178.5633318874141
n,1338,-19.16666201280261,-16.27181740835948,-177.8347309529004
n,1339,-32.5084770699394,4.903351387793739,-164.2150946845631
n,1340,-39.43215663238664,4.640667826354282,-177.3222285314366
n,1341,-42.33749774353109,16.53745038237415,-172.642138191548
n,1342,-10.6736359204639,-7.277197871781333,-171.0550859334876
n,1343,-10.87422930163382,-4.722297206123945,-161.8530955622763
n,1344,-10.98091305662717,-11.04674791672381,-176.1043315153024
n,1345,-37.90369168266859,5.401796458282954,-163.9160488609022
n,1346,-34.86870487637756,8.114449701581053,-207.9070045142759
n,1347,-42.63762965054475,6.244962768531103,-165.6564242533952
n,1348,-37.91016932486663,32.342332323656,-163.9687985642629
n,1349,-42.23395609082635,12.9733502915694,-179.2327194322667
n,1350,-17.0400929571759,3.127225086144538,-228.6329825205088
n,1351,-18.10371941692595,-13.94723936143886,-163.4413021931193
n,1352,-46.87265418969994,32.80445722029965,-158.986311284405
n,1353,-54.89036240639333,38.02170940813962,-166.3018882411989
n,1354,-48.02280759979779,9.047616785237263,-159.8318005132917
n,1355,-33.10780691626103,-1.948182217977058,-206.6608873988243
n,1356,-18.65183267864299,-8.9437383135732,-176.145051047401
n,1357,-33.33338341051415,21.71408640010288,-155.4070953673271
n,1358,-56.43590755960416,14.98137258514308,-158.9154295474942
n,1359,-35.69088175009496,14.9164732361861,-186.6669673332526
n,1360,-31.69548461762589,19.22596760711983,-187.5406264931535
n,1361,-40.81477860697245,17.0897072702825,-187.7085198930135
n,1362,-40.52804713015574,15.25410458964021,-217.0837838806887
n,1363,-52.1056975699877,16.9452325082781,-171.53299459613
n,1364,-29.63282339270937,4.57346176694381,-202.298320366004
n,1365,-26.33750326244295,2.416430932451093,-207.9551808125505
n,1366,-16.76368983175689,3.365965332228068,-174.1563059730466
n,1367,-52.2588004825079,38.09571558381338,-171.686133050382
n,1368,-40.5068043582514,21.05790709629939,-167.9738166210982
n,1369,-41.88230750254829,22.11708417171559,-178.250786347247
n,1370,-30.88938115850012,1.295083419257056,-185.5525160979419
n,1371,-35.50624568549734,-4.874303974475127,-223.4770546771505
n,1372,-11.99372589658469,-2.671796991003254,-207.5756278507562
n,1373,-24.06432346741046,9.874120274406483,-177.3709788044576
n,1374,-19.34375175771321,-14.00728313306526,-168.3116737866822
n,1375,-57.37238560376542,32.04750909664459,-173.4969806247259
n,1376,-8.150497539141279,-5.523668627779249,-174.2841655006111
n,1377,-29.04453881281797,14.23397157987923,-184.4706262346517
n,1378,6.594708110760521,-1.88999874159898,-156.8717200194049
n,1379,-24.63146628600841,8.62641058229698,-187.7220031739066
n,1380,-42.97779539482489,30.6629622860433,-189.5876557611753
n,1381,-50.68870429881819,7.697927037265638,-171.1410390885088
n,1382,-40.93182182854547,4.848519175290846,-195.057758956341
n,1383,-60.30755395612491,15.62288569029757,-166.2341398845642
n,1384,-12.73538742052811,-9.015839970241922,-163.6779359395776
